<?xml version="1.0" encoding="utf-8"?>
<!DOCTYPE eagle SYSTEM "eagle.dtd">
<eagle version="7.6.0">
<drawing>
<settings>
<setting alwaysvectorfont="no"/>
<setting verticaltext="up"/>
</settings>
<grid distance="0.1" unitdist="inch" unit="inch" style="lines" multiple="1" display="yes" altdistance="0.05" altunitdist="inch" altunit="inch"/>
<layers>
<layer number="1" name="Top" color="4" fill="1" visible="yes" active="yes"/>
<layer number="16" name="Bottom" color="1" fill="1" visible="yes" active="yes"/>
<layer number="17" name="Pads" color="2" fill="1" visible="yes" active="yes"/>
<layer number="18" name="Vias" color="2" fill="1" visible="yes" active="yes"/>
<layer number="19" name="Unrouted" color="6" fill="1" visible="yes" active="yes"/>
<layer number="20" name="Dimension" color="15" fill="1" visible="yes" active="yes"/>
<layer number="21" name="tPlace" color="7" fill="1" visible="yes" active="yes"/>
<layer number="22" name="bPlace" color="7" fill="1" visible="yes" active="yes"/>
<layer number="23" name="tOrigins" color="15" fill="1" visible="yes" active="yes"/>
<layer number="24" name="bOrigins" color="15" fill="1" visible="yes" active="yes"/>
<layer number="25" name="tNames" color="7" fill="1" visible="yes" active="yes"/>
<layer number="26" name="bNames" color="7" fill="1" visible="yes" active="yes"/>
<layer number="27" name="tValues" color="7" fill="1" visible="yes" active="yes"/>
<layer number="28" name="bValues" color="7" fill="1" visible="yes" active="yes"/>
<layer number="29" name="tStop" color="7" fill="3" visible="no" active="yes"/>
<layer number="30" name="bStop" color="7" fill="6" visible="no" active="yes"/>
<layer number="31" name="tCream" color="7" fill="4" visible="no" active="yes"/>
<layer number="32" name="bCream" color="7" fill="5" visible="no" active="yes"/>
<layer number="33" name="tFinish" color="6" fill="3" visible="no" active="yes"/>
<layer number="34" name="bFinish" color="6" fill="6" visible="no" active="yes"/>
<layer number="35" name="tGlue" color="7" fill="4" visible="no" active="yes"/>
<layer number="36" name="bGlue" color="7" fill="5" visible="no" active="yes"/>
<layer number="37" name="tTest" color="7" fill="1" visible="no" active="yes"/>
<layer number="38" name="bTest" color="7" fill="1" visible="no" active="yes"/>
<layer number="39" name="tKeepout" color="4" fill="11" visible="yes" active="yes"/>
<layer number="40" name="bKeepout" color="1" fill="11" visible="yes" active="yes"/>
<layer number="41" name="tRestrict" color="4" fill="10" visible="yes" active="yes"/>
<layer number="42" name="bRestrict" color="1" fill="10" visible="yes" active="yes"/>
<layer number="43" name="vRestrict" color="2" fill="10" visible="yes" active="yes"/>
<layer number="44" name="Drills" color="7" fill="1" visible="no" active="yes"/>
<layer number="45" name="Holes" color="7" fill="1" visible="no" active="yes"/>
<layer number="46" name="Milling" color="3" fill="1" visible="no" active="yes"/>
<layer number="47" name="Measures" color="7" fill="1" visible="no" active="yes"/>
<layer number="48" name="Document" color="7" fill="1" visible="yes" active="yes"/>
<layer number="49" name="Reference" color="7" fill="1" visible="yes" active="yes"/>
<layer number="51" name="tDocu" color="7" fill="1" visible="yes" active="yes"/>
<layer number="52" name="bDocu" color="7" fill="1" visible="yes" active="yes"/>
<layer number="90" name="Modules" color="5" fill="1" visible="no" active="no"/>
<layer number="91" name="Nets" color="2" fill="1" visible="no" active="no"/>
<layer number="92" name="Busses" color="1" fill="1" visible="no" active="no"/>
<layer number="93" name="Pins" color="2" fill="1" visible="no" active="no"/>
<layer number="94" name="Symbols" color="4" fill="1" visible="no" active="no"/>
<layer number="95" name="Names" color="7" fill="1" visible="no" active="no"/>
<layer number="96" name="Values" color="7" fill="1" visible="no" active="no"/>
<layer number="97" name="Info" color="7" fill="1" visible="no" active="no"/>
<layer number="98" name="Guide" color="6" fill="1" visible="no" active="no"/>
<layer number="99" name="SpiceOrder" color="5" fill="1" visible="no" active="no"/>
</layers>
<board>
<plain>
<wire x1="0" y1="0" x2="102.54" y2="0" width="0" layer="20"/>
<wire x1="102.54" y1="0" x2="102.54" y2="80" width="0" layer="20"/>
<wire x1="102.54" y1="80" x2="0" y2="80" width="0" layer="20"/>
<wire x1="0" y1="80" x2="0" y2="0" width="0" layer="20"/>
<text x="45.72" y="76.2" size="1.778" layer="48">25 Tracks</text>
<text x="0" y="78.74" size="1.778" layer="48">1</text>
<text x="22.86" y="78.74" size="1.778" layer="48">10</text>
<text x="48.26" y="78.74" size="1.778" layer="48">20</text>
<text x="73.66" y="78.74" size="1.778" layer="48">30</text>
<text x="99.06" y="78.74" size="1.778" layer="48">40</text>
</plain>
<libraries>
<library name="pinhead">
<description>&lt;b&gt;Pin Header Connectors&lt;/b&gt;&lt;p&gt;
&lt;author&gt;Created by librarian@cadsoft.de&lt;/author&gt;</description>
<packages>
<package name="1X01">
<description>&lt;b&gt;PIN HEADER&lt;/b&gt;</description>
<wire x1="-0.635" y1="1.27" x2="0.635" y2="1.27" width="0.1524" layer="21"/>
<wire x1="0.635" y1="1.27" x2="1.27" y2="0.635" width="0.1524" layer="21"/>
<wire x1="1.27" y1="0.635" x2="1.27" y2="-0.635" width="0.1524" layer="21"/>
<wire x1="1.27" y1="-0.635" x2="0.635" y2="-1.27" width="0.1524" layer="21"/>
<wire x1="-1.27" y1="0.635" x2="-1.27" y2="-0.635" width="0.1524" layer="21"/>
<wire x1="-0.635" y1="1.27" x2="-1.27" y2="0.635" width="0.1524" layer="21"/>
<wire x1="-1.27" y1="-0.635" x2="-0.635" y2="-1.27" width="0.1524" layer="21"/>
<wire x1="0.635" y1="-1.27" x2="-0.635" y2="-1.27" width="0.1524" layer="21"/>
<pad name="1" x="0" y="0" drill="1.016" shape="octagon"/>
<text x="-1.3462" y="1.8288" size="1.27" layer="25" ratio="10">&gt;NAME</text>
<text x="-1.27" y="-3.175" size="1.27" layer="27">&gt;VALUE</text>
<rectangle x1="-0.254" y1="-0.254" x2="0.254" y2="0.254" layer="51"/>
</package>
</packages>
</library>
<library name="transistor-neu-to92">
<description>&lt;b&gt;NPN Transistors&lt;/b&gt;&lt;p&gt;
&lt;author&gt;Created by librarian@cadsoft.de&lt;/author&gt;</description>
<packages>
<package name="TO92-EBC">
<description>&lt;b&gt;TO-92&lt;/b&gt; Pads In Line E B C from top&lt;p&gt;</description>
<wire x1="-2.095" y1="-2.921" x2="2.095" y2="-2.921" width="0.127" layer="21"/>
<wire x1="-2.413" y1="-0.1341" x2="2.413" y2="-0.1341" width="0.127" layer="21" curve="-129.583345"/>
<wire x1="1.136" y1="-1.397" x2="-1.136" y2="-1.397" width="0.127" layer="51"/>
<wire x1="-2.413" y1="-0.1341" x2="-2.664" y2="-1.397" width="0.127" layer="51" curve="27.937554"/>
<wire x1="-2.664" y1="-1.397" x2="-2.413" y2="-2.4059" width="0.127" layer="51" curve="22.478763"/>
<wire x1="-1.404" y1="-1.397" x2="-2.664" y2="-1.397" width="0.127" layer="51"/>
<wire x1="-2.4135" y1="-2.4059" x2="-2.095" y2="-2.921" width="0.127" layer="21" curve="13.038528"/>
<wire x1="-1.136" y1="-1.397" x2="-1.404" y2="-1.397" width="0.127" layer="21"/>
<wire x1="2.413" y1="-2.4059" x2="2.664" y2="-1.397" width="0.127" layer="51" curve="22.478763"/>
<wire x1="2.664" y1="-1.397" x2="2.413" y2="-0.1341" width="0.127" layer="51" curve="27.937554"/>
<wire x1="2.664" y1="-1.397" x2="1.404" y2="-1.397" width="0.127" layer="51"/>
<wire x1="1.404" y1="-1.397" x2="1.136" y2="-1.397" width="0.127" layer="21"/>
<wire x1="2.095" y1="-2.921" x2="2.4247" y2="-2.3818" width="0.127" layer="21" curve="13.609443"/>
<pad name="C" x="2.54" y="-1.27" drill="0.8128" shape="long" rot="R90"/>
<pad name="E" x="-2.54" y="-1.27" drill="0.8128" shape="long" rot="R90"/>
<pad name="B" x="0" y="-1.27" drill="0.8128" shape="long" rot="R90"/>
<text x="-2.54" y="1.778" size="1.27" layer="25" ratio="10">&gt;NAME</text>
<text x="-2.54" y="-4.572" size="1.27" layer="27" ratio="10">&gt;VALUE</text>
</package>
</packages>
</library>
<library name="resistor">
<description>&lt;b&gt;Resistors, Capacitors, Inductors&lt;/b&gt;&lt;p&gt;
Based on the previous libraries:
&lt;ul&gt;
&lt;li&gt;r.lbr
&lt;li&gt;cap.lbr 
&lt;li&gt;cap-fe.lbr
&lt;li&gt;captant.lbr
&lt;li&gt;polcap.lbr
&lt;li&gt;ipc-smd.lbr
&lt;/ul&gt;
All SMD packages are defined according to the IPC specifications and  CECC&lt;p&gt;
&lt;author&gt;Created by librarian@cadsoft.de&lt;/author&gt;&lt;p&gt;
&lt;p&gt;
for Electrolyt Capacitors see also :&lt;p&gt;
www.bccomponents.com &lt;p&gt;
www.panasonic.com&lt;p&gt;
www.kemet.com&lt;p&gt;
&lt;p&gt;
for trimmer refence see : &lt;u&gt;www.electrospec-inc.com/cross_references/trimpotcrossref.asp&lt;/u&gt;&lt;p&gt;

&lt;map name="nav_main"&gt;
&lt;area shape="rect" coords="0,1,140,23" href="../military_specs.asp" title=""&gt;
&lt;area shape="rect" coords="0,24,140,51" href="../about.asp" title=""&gt;
&lt;area shape="rect" coords="1,52,140,77" href="../rfq.asp" title=""&gt;
&lt;area shape="rect" coords="0,78,139,103" href="../products.asp" title=""&gt;
&lt;area shape="rect" coords="1,102,138,128" href="../excess_inventory.asp" title=""&gt;
&lt;area shape="rect" coords="1,129,138,150" href="../edge.asp" title=""&gt;
&lt;area shape="rect" coords="1,151,139,178" href="../industry_links.asp" title=""&gt;
&lt;area shape="rect" coords="0,179,139,201" href="../comments.asp" title=""&gt;
&lt;area shape="rect" coords="1,203,138,231" href="../directory.asp" title=""&gt;
&lt;area shape="default" nohref&gt;
&lt;/map&gt;

&lt;html&gt;

&lt;title&gt;&lt;/title&gt;

 &lt;LINK REL="StyleSheet" TYPE="text/css" HREF="style-sheet.css"&gt;

&lt;body bgcolor="#ffffff" text="#000000" marginwidth="0" marginheight="0" topmargin="0" leftmargin="0"&gt;
&lt;table border=0 cellspacing=0 cellpadding=0 width="100%" cellpaddding=0 height="55%"&gt;
&lt;tr valign="top"&gt;

&lt;/td&gt;
&lt;! &lt;td width="10"&gt;&amp;nbsp;&lt;/td&gt;
&lt;td width="90%"&gt;

&lt;b&gt;&lt;font color="#0000FF" size="4"&gt;TRIM-POT CROSS REFERENCE&lt;/font&gt;&lt;/b&gt;
&lt;P&gt;
&lt;TABLE BORDER=0 CELLSPACING=1 CELLPADDING=2&gt;
  &lt;TR&gt;
    &lt;TD COLSPAN=8&gt;
      &lt;FONT SIZE=3 FACE=ARIAL&gt;&lt;B&gt;RECTANGULAR MULTI-TURN&lt;/B&gt;&lt;/FONT&gt;
    &lt;/TD&gt;
  &lt;/TR&gt;
  &lt;TR&gt;
    &lt;TD ALIGN=CENTER&gt;
      &lt;B&gt;
      &lt;FONT SIZE=3 FACE=ARIAL color="#FF0000"&gt;BOURNS&lt;/FONT&gt;
      &lt;/B&gt;
    &lt;/TD&gt;
    &lt;TD ALIGN=CENTER&gt;
      &lt;B&gt;
      &lt;FONT SIZE=3 FACE=ARIAL color="#FF0000"&gt;BI&amp;nbsp;TECH&lt;/FONT&gt;
      &lt;/B&gt;
    &lt;/TD&gt;
    &lt;TD ALIGN=CENTER&gt;
      &lt;B&gt;
      &lt;FONT SIZE=3 FACE=ARIAL color="#FF0000"&gt;DALE-VISHAY&lt;/FONT&gt;
      &lt;/B&gt;
    &lt;/TD&gt;
    &lt;TD ALIGN=CENTER&gt;
      &lt;B&gt;
      &lt;FONT SIZE=3 FACE=ARIAL color="#FF0000"&gt;PHILIPS/MEPCO&lt;/FONT&gt;
      &lt;/B&gt;
    &lt;/TD&gt;
    &lt;TD ALIGN=CENTER&gt;
      &lt;B&gt;
      &lt;FONT SIZE=3 FACE=ARIAL color="#FF0000"&gt;MURATA&lt;/FONT&gt;
      &lt;/B&gt;
    &lt;/TD&gt;
    &lt;TD ALIGN=CENTER&gt;
      &lt;B&gt;
      &lt;FONT SIZE=3 FACE=ARIAL color="#FF0000"&gt;PANASONIC&lt;/FONT&gt;
      &lt;/B&gt;
    &lt;/TD&gt;
    &lt;TD ALIGN=CENTER&gt;
      &lt;B&gt;
      &lt;FONT SIZE=3 FACE=ARIAL color="#FF0000"&gt;SPECTROL&lt;/FONT&gt;
      &lt;/B&gt;
    &lt;/TD&gt;
    &lt;TD ALIGN=CENTER&gt;
      &lt;B&gt;
      &lt;FONT SIZE=3 FACE=ARIAL color="#FF0000"&gt;MILSPEC&lt;/FONT&gt;
      &lt;/B&gt;
    &lt;/TD&gt;&lt;TD&gt;&amp;nbsp;&lt;/TD&gt;
  &lt;/TR&gt;
  &lt;TR&gt;
    &lt;TD BGCOLOR="#cccccc" ALIGN=CENTER&gt;&lt;FONT FACE=ARIAL SIZE=3 &gt;
      3005P&lt;BR&gt;
      3006P&lt;BR&gt;
      3006W&lt;BR&gt;
      3006Y&lt;BR&gt;
      3009P&lt;BR&gt;
      3009W&lt;BR&gt;
      3009Y&lt;BR&gt;
      3057J&lt;BR&gt;
      3057L&lt;BR&gt;
      3057P&lt;BR&gt;
      3057Y&lt;BR&gt;
      3059J&lt;BR&gt;
      3059L&lt;BR&gt;
      3059P&lt;BR&gt;
      3059Y&lt;BR&gt;&lt;/FONT&gt;
    &lt;/TD&gt;
    &lt;TD BGCOLOR="#cccccc" ALIGN=CENTER&gt;&lt;FONT FACE=ARIAL SIZE=3&gt;
      -&lt;BR&gt;
      89P&lt;BR&gt;
      89W&lt;BR&gt;
      89X&lt;BR&gt;
      89PH&lt;BR&gt;
      76P&lt;BR&gt;
      89XH&lt;BR&gt;
      78SLT&lt;BR&gt;
      78L&amp;nbsp;ALT&lt;BR&gt;
      56P&amp;nbsp;ALT&lt;BR&gt;
      78P&amp;nbsp;ALT&lt;BR&gt;
      T8S&lt;BR&gt;
      78L&lt;BR&gt;
      56P&lt;BR&gt;
      78P&lt;BR&gt;&lt;/FONT&gt;
    &lt;/TD&gt;
    &lt;TD BGCOLOR="#cccccc" ALIGN=CENTER&gt;&lt;FONT FACE=ARIAL SIZE=3&gt;
      -&lt;BR&gt;
      T18/784&lt;BR&gt;
      783&lt;BR&gt;
      781&lt;BR&gt;
      -&lt;BR&gt;
      -&lt;BR&gt;
      -&lt;BR&gt;
      2199&lt;BR&gt;
      1697/1897&lt;BR&gt;
      1680/1880&lt;BR&gt;
      2187&lt;BR&gt;
      -&lt;BR&gt;
      -&lt;BR&gt;
      -&lt;BR&gt;
      -&lt;BR&gt;&lt;/FONT&gt;
    &lt;/TD&gt;
    &lt;TD BGCOLOR="#cccccc" ALIGN=CENTER&gt;&lt;FONT FACE=ARIAL SIZE=3&gt;
      -&lt;BR&gt;
      8035EKP/CT20/RJ-20P&lt;BR&gt;
      -&lt;BR&gt;
      RJ-20X&lt;BR&gt;
      -&lt;BR&gt;
      -&lt;BR&gt;
      -&lt;BR&gt;
      1211L&lt;BR&gt;
      8012EKQ&amp;nbsp;ALT&lt;BR&gt;
      8012EKR&amp;nbsp;ALT&lt;BR&gt;
      1211P&lt;BR&gt;
      8012EKJ&lt;BR&gt;
      8012EKL&lt;BR&gt;
      8012EKQ&lt;BR&gt;
      8012EKR&lt;BR&gt;&lt;/FONT&gt;
    &lt;/TD&gt;
    &lt;TD BGCOLOR="#cccccc" ALIGN=CENTER&gt;&lt;FONT FACE=ARIAL SIZE=3&gt;
      -&lt;BR&gt;
      2101P&lt;BR&gt;
      2101W&lt;BR&gt;
      2101Y&lt;BR&gt;
      -&lt;BR&gt;
      -&lt;BR&gt;
      -&lt;BR&gt;
      -&lt;BR&gt;
      -&lt;BR&gt;
      -&lt;BR&gt;
      -&lt;BR&gt;
      -&lt;BR&gt;
      2102L&lt;BR&gt;
      2102S&lt;BR&gt;
      2102Y&lt;BR&gt;&lt;/FONT&gt;
    &lt;/TD&gt;
    &lt;TD BGCOLOR="#cccccc" ALIGN=CENTER&gt;&lt;FONT FACE=ARIAL SIZE=3&gt;
      -&lt;BR&gt;
      EVMCOG&lt;BR&gt;
      -&lt;BR&gt;
      -&lt;BR&gt;
      -&lt;BR&gt;
      -&lt;BR&gt;
      -&lt;BR&gt;
      -&lt;BR&gt;
      -&lt;BR&gt;
      -&lt;BR&gt;
      -&lt;BR&gt;
      -&lt;BR&gt;
      -&lt;BR&gt;
      -&lt;BR&gt;
      -&lt;BR&gt;&lt;/FONT&gt;
    &lt;/TD&gt;
    &lt;TD BGCOLOR="#cccccc" ALIGN=CENTER&gt;&lt;FONT FACE=ARIAL SIZE=3&gt;
      -&lt;BR&gt;
      43P&lt;BR&gt;
      43W&lt;BR&gt;
      43Y&lt;BR&gt;
      -&lt;BR&gt;
      -&lt;BR&gt;
      -&lt;BR&gt;
      -&lt;BR&gt;
      40L&lt;BR&gt;
      40P&lt;BR&gt;
      40Y&lt;BR&gt;
      70Y-T602&lt;BR&gt;
      70L&lt;BR&gt;
      70P&lt;BR&gt;
      70Y&lt;BR&gt;&lt;/FONT&gt;
    &lt;/TD&gt;
    &lt;TD BGCOLOR="#cccccc" ALIGN=CENTER&gt;&lt;FONT FACE=ARIAL SIZE=3&gt;
      -&lt;BR&gt;
      -&lt;BR&gt;
      -&lt;BR&gt;
      -&lt;BR&gt;
      -&lt;BR&gt;
      -&lt;BR&gt;
      -&lt;BR&gt;
      -&lt;BR&gt;
      RT/RTR12&lt;BR&gt;
      RT/RTR12&lt;BR&gt;
      RT/RTR12&lt;BR&gt;
      -&lt;BR&gt;
      RJ/RJR12&lt;BR&gt;
      RJ/RJR12&lt;BR&gt;
      RJ/RJR12&lt;BR&gt;&lt;/FONT&gt;
    &lt;/TD&gt;
  &lt;/TR&gt;
  &lt;TR&gt;
    &lt;TD COLSPAN=8&gt;&amp;nbsp;
    &lt;/TD&gt;
  &lt;/TR&gt;
  &lt;TR&gt;
    &lt;TD COLSPAN=8&gt;
      &lt;FONT SIZE=4 FACE=ARIAL&gt;&lt;B&gt;SQUARE MULTI-TURN&lt;/B&gt;&lt;/FONT&gt;
    &lt;/TD&gt;
  &lt;/TR&gt;
  &lt;TR&gt;
   &lt;TD ALIGN=CENTER&gt;
      &lt;FONT SIZE=3 FACE=ARIAL&gt;&lt;B&gt;BOURN&lt;/B&gt;&lt;/FONT&gt;
    &lt;/TD&gt;
    &lt;TD ALIGN=CENTER&gt;
      &lt;FONT SIZE=3 FACE=ARIAL&gt;&lt;B&gt;BI&amp;nbsp;TECH&lt;/B&gt;&lt;/FONT&gt;
    &lt;/TD&gt;
    &lt;TD ALIGN=CENTER&gt;
      &lt;FONT SIZE=3 FACE=ARIAL&gt;&lt;B&gt;DALE-VISHAY&lt;/B&gt;&lt;/FONT&gt;
    &lt;/TD&gt;
    &lt;TD ALIGN=CENTER&gt;
      &lt;FONT SIZE=3 FACE=ARIAL&gt;&lt;B&gt;PHILIPS/MEPCO&lt;/B&gt;&lt;/FONT&gt;
    &lt;/TD&gt;
    &lt;TD ALIGN=CENTER&gt;
      &lt;FONT SIZE=3 FACE=ARIAL&gt;&lt;B&gt;MURATA&lt;/B&gt;&lt;/FONT&gt;
    &lt;/TD&gt;
    &lt;TD ALIGN=CENTER&gt;
      &lt;FONT SIZE=3 FACE=ARIAL&gt;&lt;B&gt;PANASONIC&lt;/B&gt;&lt;/FONT&gt;
    &lt;/TD&gt;
    &lt;TD ALIGN=CENTER&gt;
      &lt;FONT SIZE=3 FACE=ARIAL&gt;&lt;B&gt;SPECTROL&lt;/B&gt;&lt;/FONT&gt;
    &lt;/TD&gt;
    &lt;TD ALIGN=CENTER&gt;
      &lt;FONT SIZE=3 FACE=ARIAL&gt;&lt;B&gt;MILSPEC&lt;/B&gt;&lt;/FONT&gt;
    &lt;/TD&gt;
  &lt;/TR&gt;
  &lt;TR&gt;
    &lt;TD BGCOLOR="#cccccc" ALIGN=CENTER&gt;&lt;FONT FACE=ARIAL SIZE=3&gt;
      3250L&lt;BR&gt;
      3250P&lt;BR&gt;
      3250W&lt;BR&gt;
      3250X&lt;BR&gt;
      3252P&lt;BR&gt;
      3252W&lt;BR&gt;
      3252X&lt;BR&gt;
      3260P&lt;BR&gt;
      3260W&lt;BR&gt;
      3260X&lt;BR&gt;
      3262P&lt;BR&gt;
      3262W&lt;BR&gt;
      3262X&lt;BR&gt;
      3266P&lt;BR&gt;
      3266W&lt;BR&gt;
      3266X&lt;BR&gt;
      3290H&lt;BR&gt;
      3290P&lt;BR&gt;
      3290W&lt;BR&gt;
      3292P&lt;BR&gt;
      3292W&lt;BR&gt;
      3292X&lt;BR&gt;
      3296P&lt;BR&gt;
      3296W&lt;BR&gt;
      3296X&lt;BR&gt;
      3296Y&lt;BR&gt;
      3296Z&lt;BR&gt;
      3299P&lt;BR&gt;
      3299W&lt;BR&gt;
      3299X&lt;BR&gt;
      3299Y&lt;BR&gt;
      3299Z&lt;BR&gt;&lt;/FONT&gt;
    &lt;/TD&gt;
    &lt;TD BGCOLOR="#cccccc" ALIGN=CENTER&gt;&lt;FONT FACE=ARIAL SIZE=3&gt;
      -&lt;BR&gt;
      66P&amp;nbsp;ALT&lt;BR&gt;
      66W&amp;nbsp;ALT&lt;BR&gt;
      66X&amp;nbsp;ALT&lt;BR&gt;
      66P&amp;nbsp;ALT&lt;BR&gt;
      66W&amp;nbsp;ALT&lt;BR&gt;
      66X&amp;nbsp;ALT&lt;BR&gt;
      -&lt;BR&gt;
      64W&amp;nbsp;ALT&lt;BR&gt;
      -&lt;BR&gt;
      64P&amp;nbsp;ALT&lt;BR&gt;
      64W&amp;nbsp;ALT&lt;BR&gt;
      64X&amp;nbsp;ALT&lt;BR&gt;
      64P&lt;BR&gt;
      64W&lt;BR&gt;
      64X&lt;BR&gt;
      66X&amp;nbsp;ALT&lt;BR&gt;
      66P&amp;nbsp;ALT&lt;BR&gt;
      66W&amp;nbsp;ALT&lt;BR&gt;
      66P&lt;BR&gt;
      66W&lt;BR&gt;
      66X&lt;BR&gt;
      67P&lt;BR&gt;
      67W&lt;BR&gt;
      67X&lt;BR&gt;
      67Y&lt;BR&gt;
      67Z&lt;BR&gt;
      68P&lt;BR&gt;
      68W&lt;BR&gt;
      68X&lt;BR&gt;
      67Y&amp;nbsp;ALT&lt;BR&gt;
      67Z&amp;nbsp;ALT&lt;BR&gt;&lt;/FONT&gt;
    &lt;/TD&gt;
    &lt;TD BGCOLOR="#cccccc" ALIGN=CENTER&gt;&lt;FONT FACE=ARIAL SIZE=3&gt;
      5050&lt;BR&gt;
      5091&lt;BR&gt;
      5080&lt;BR&gt;
      5087&lt;BR&gt;
      -&lt;BR&gt;
      -&lt;BR&gt;
      -&lt;BR&gt;
      -&lt;BR&gt;
      -&lt;BR&gt;
      -&lt;BR&gt;
      -&lt;BR&gt;
      T63YB&lt;BR&gt;
      T63XB&lt;BR&gt;
      -&lt;BR&gt;
      -&lt;BR&gt;
      -&lt;BR&gt;
      5887&lt;BR&gt;
      5891&lt;BR&gt;
      5880&lt;BR&gt;
      -&lt;BR&gt;
      -&lt;BR&gt;
      -&lt;BR&gt;
      T93Z&lt;BR&gt;
      T93YA&lt;BR&gt;
      T93XA&lt;BR&gt;
      T93YB&lt;BR&gt;
      T93XB&lt;BR&gt;
      -&lt;BR&gt;
      -&lt;BR&gt;
      -&lt;BR&gt;
      -&lt;BR&gt;
      -&lt;BR&gt;&lt;/FONT&gt;
    &lt;/TD&gt;
    &lt;TD BGCOLOR="#cccccc" ALIGN=CENTER&gt;&lt;FONT FACE=ARIAL SIZE=3&gt;
      -&lt;BR&gt;
      -&lt;BR&gt;
      -&lt;BR&gt;
      -&lt;BR&gt;
      -&lt;BR&gt;
      -&lt;BR&gt;
      -&lt;BR&gt;
      -&lt;BR&gt;
      -&lt;BR&gt;
      -&lt;BR&gt;
      8026EKP&lt;BR&gt;
      8026EKW&lt;BR&gt;
      8026EKM&lt;BR&gt;
      8026EKP&lt;BR&gt;
      8026EKB&lt;BR&gt;
      8026EKM&lt;BR&gt;
      1309X&lt;BR&gt;
      1309P&lt;BR&gt;
      1309W&lt;BR&gt;
      8024EKP&lt;BR&gt;
      8024EKW&lt;BR&gt;
      8024EKN&lt;BR&gt;
      RJ-9P/CT9P&lt;BR&gt;
      RJ-9W&lt;BR&gt;
      RJ-9X&lt;BR&gt;
      -&lt;BR&gt;
      -&lt;BR&gt;
      -&lt;BR&gt;
      -&lt;BR&gt;
      -&lt;BR&gt;
      -&lt;BR&gt;
      -&lt;BR&gt;&lt;/FONT&gt;
    &lt;/TD&gt;
    &lt;TD BGCOLOR="#cccccc" ALIGN=CENTER&gt;&lt;FONT FACE=ARIAL SIZE=3&gt;
      -&lt;BR&gt;
      -&lt;BR&gt;
      -&lt;BR&gt;
      -&lt;BR&gt;
      -&lt;BR&gt;
      -&lt;BR&gt;
      -&lt;BR&gt;
      -&lt;BR&gt;
      -&lt;BR&gt;
      -&lt;BR&gt;
      3103P&lt;BR&gt;
      3103Y&lt;BR&gt;
      3103Z&lt;BR&gt;
      3103P&lt;BR&gt;
      3103Y&lt;BR&gt;
      3103Z&lt;BR&gt;
      -&lt;BR&gt;
      -&lt;BR&gt;
      -&lt;BR&gt;
      -&lt;BR&gt;
      -&lt;BR&gt;
      -&lt;BR&gt;
      3105P/3106P&lt;BR&gt;
      3105W/3106W&lt;BR&gt;
      3105X/3106X&lt;BR&gt;
      3105Y/3106Y&lt;BR&gt;
      3105Z/3105Z&lt;BR&gt;
      3102P&lt;BR&gt;
      3102W&lt;BR&gt;
      3102X&lt;BR&gt;
      3102Y&lt;BR&gt;
      3102Z&lt;BR&gt;&lt;/FONT&gt;
    &lt;/TD&gt;
    &lt;TD BGCOLOR="#cccccc" ALIGN=CENTER&gt;&lt;FONT FACE=ARIAL SIZE=3&gt;
      -&lt;BR&gt;
      -&lt;BR&gt;
      -&lt;BR&gt;
      -&lt;BR&gt;
      -&lt;BR&gt;
      -&lt;BR&gt;
      -&lt;BR&gt;
      -&lt;BR&gt;
      -&lt;BR&gt;
      -&lt;BR&gt;
      -&lt;BR&gt;
      -&lt;BR&gt;
      -&lt;BR&gt;
      -&lt;BR&gt;
      -&lt;BR&gt;
      -&lt;BR&gt;
      -&lt;BR&gt;
      -&lt;BR&gt;
      -&lt;BR&gt;
      -&lt;BR&gt;
      -&lt;BR&gt;
      -&lt;BR&gt;
      EVMCBG&lt;BR&gt;
      EVMCCG&lt;BR&gt;
      -&lt;BR&gt;
      -&lt;BR&gt;
      -&lt;BR&gt;
      -&lt;BR&gt;
      -&lt;BR&gt;
      -&lt;BR&gt;
      -&lt;BR&gt;
      -&lt;BR&gt;&lt;/FONT&gt;
    &lt;/TD&gt;
    &lt;TD BGCOLOR="#cccccc" ALIGN=CENTER&gt;&lt;FONT FACE=ARIAL SIZE=3&gt;
      55-1-X&lt;BR&gt;
      55-4-X&lt;BR&gt;
      55-3-X&lt;BR&gt;
      55-2-X&lt;BR&gt;
      -&lt;BR&gt;
      -&lt;BR&gt;
      -&lt;BR&gt;
      -&lt;BR&gt;
      -&lt;BR&gt;
      -&lt;BR&gt;
      -&lt;BR&gt;
      -&lt;BR&gt;
      -&lt;BR&gt;
      -&lt;BR&gt;
      -&lt;BR&gt;
      -&lt;BR&gt;
      50-2-X&lt;BR&gt;
      50-4-X&lt;BR&gt;
      50-3-X&lt;BR&gt;
      -&lt;BR&gt;
      -&lt;BR&gt;
      -&lt;BR&gt;
      64P&lt;BR&gt;
      64W&lt;BR&gt;
      64X&lt;BR&gt;
      64Y&lt;BR&gt;
      64Z&lt;BR&gt;
      -&lt;BR&gt;
      -&lt;BR&gt;
      -&lt;BR&gt;
      -&lt;BR&gt;
      -&lt;BR&gt;&lt;/FONT&gt;
    &lt;/TD&gt;
    &lt;TD BGCOLOR="#cccccc" ALIGN=CENTER&gt;&lt;FONT FACE=ARIAL SIZE=3&gt;
      RT/RTR22&lt;BR&gt;
      RT/RTR22&lt;BR&gt;
      RT/RTR22&lt;BR&gt;
      RT/RTR22&lt;BR&gt;
      RJ/RJR22&lt;BR&gt;
      RJ/RJR22&lt;BR&gt;
      RJ/RJR22&lt;BR&gt;
      RT/RTR26&lt;BR&gt;
      RT/RTR26&lt;BR&gt;
      RT/RTR26&lt;BR&gt;
      RJ/RJR26&lt;BR&gt;
      RJ/RJR26&lt;BR&gt;
      RJ/RJR26&lt;BR&gt;
      RJ/RJR26&lt;BR&gt;
      RJ/RJR26&lt;BR&gt;
      RJ/RJR26&lt;BR&gt;
      RT/RTR24&lt;BR&gt;
      RT/RTR24&lt;BR&gt;
      RT/RTR24&lt;BR&gt;
      RJ/RJR24&lt;BR&gt;
      RJ/RJR24&lt;BR&gt;
      RJ/RJR24&lt;BR&gt;
      RJ/RJR24&lt;BR&gt;
      RJ/RJR24&lt;BR&gt;
      RJ/RJR24&lt;BR&gt;
      -&lt;BR&gt;
      -&lt;BR&gt;
      -&lt;BR&gt;
      -&lt;BR&gt;
      -&lt;BR&gt;
      -&lt;BR&gt;
      -&lt;BR&gt;&lt;/FONT&gt;
    &lt;/TD&gt;
  &lt;/TR&gt;
  &lt;TR&gt;
    &lt;TD COLSPAN=8&gt;&amp;nbsp;
    &lt;/TD&gt;
  &lt;/TR&gt;
  &lt;TR&gt;
    &lt;TD COLSPAN=8&gt;
      &lt;FONT SIZE=4 FACE=ARIAL&gt;&lt;B&gt;SINGLE TURN&lt;/B&gt;&lt;/FONT&gt;
    &lt;/TD&gt;
  &lt;/TR&gt;
  &lt;TR&gt;
    &lt;TD ALIGN=CENTER&gt;
      &lt;FONT SIZE=3 FACE=ARIAL&gt;&lt;B&gt;BOURN&lt;/B&gt;&lt;/FONT&gt;
    &lt;/TD&gt;
    &lt;TD ALIGN=CENTER&gt;
      &lt;FONT SIZE=3 FACE=ARIAL&gt;&lt;B&gt;BI&amp;nbsp;TECH&lt;/B&gt;&lt;/FONT&gt;
    &lt;/TD&gt;
    &lt;TD ALIGN=CENTER&gt;
      &lt;FONT SIZE=3 FACE=ARIAL&gt;&lt;B&gt;DALE-VISHAY&lt;/B&gt;&lt;/FONT&gt;
    &lt;/TD&gt;
    &lt;TD ALIGN=CENTER&gt;
      &lt;FONT SIZE=3 FACE=ARIAL&gt;&lt;B&gt;PHILIPS/MEPCO&lt;/B&gt;&lt;/FONT&gt;
    &lt;/TD&gt;
    &lt;TD ALIGN=CENTER&gt;
      &lt;FONT SIZE=3 FACE=ARIAL&gt;&lt;B&gt;MURATA&lt;/B&gt;&lt;/FONT&gt;
    &lt;/TD&gt;
    &lt;TD ALIGN=CENTER&gt;
      &lt;FONT SIZE=3 FACE=ARIAL&gt;&lt;B&gt;PANASONIC&lt;/B&gt;&lt;/FONT&gt;
    &lt;/TD&gt;
    &lt;TD ALIGN=CENTER&gt;
      &lt;FONT SIZE=3 FACE=ARIAL&gt;&lt;B&gt;SPECTROL&lt;/B&gt;&lt;/FONT&gt;
    &lt;/TD&gt;
    &lt;TD ALIGN=CENTER&gt;
      &lt;FONT SIZE=3 FACE=ARIAL&gt;&lt;B&gt;MILSPEC&lt;/B&gt;&lt;/FONT&gt;
    &lt;/TD&gt;
  &lt;/TR&gt;
  &lt;TR&gt;
    &lt;TD BGCOLOR="#cccccc" ALIGN=CENTER&gt;&lt;FONT FACE=ARIAL SIZE=3&gt;
      3323P&lt;BR&gt;
      3323S&lt;BR&gt;
      3323W&lt;BR&gt;
      3329H&lt;BR&gt;
      3329P&lt;BR&gt;
      3329W&lt;BR&gt;
      3339H&lt;BR&gt;
      3339P&lt;BR&gt;
      3339W&lt;BR&gt;
      3352E&lt;BR&gt;
      3352H&lt;BR&gt;
      3352K&lt;BR&gt;
      3352P&lt;BR&gt;
      3352T&lt;BR&gt;
      3352V&lt;BR&gt;
      3352W&lt;BR&gt;
      3362H&lt;BR&gt;
      3362M&lt;BR&gt;
      3362P&lt;BR&gt;
      3362R&lt;BR&gt;
      3362S&lt;BR&gt;
      3362U&lt;BR&gt;
      3362W&lt;BR&gt;
      3362X&lt;BR&gt;
      3386B&lt;BR&gt;
      3386C&lt;BR&gt;
      3386F&lt;BR&gt;
      3386H&lt;BR&gt;
      3386K&lt;BR&gt;
      3386M&lt;BR&gt;
      3386P&lt;BR&gt;
      3386S&lt;BR&gt;
      3386W&lt;BR&gt;
      3386X&lt;BR&gt;&lt;/FONT&gt;
    &lt;/TD&gt;
    &lt;TD BGCOLOR="#cccccc" ALIGN=CENTER&gt;&lt;FONT FACE=ARIAL SIZE=3&gt;
      25P&lt;BR&gt;
      25S&lt;BR&gt;
      25RX&lt;BR&gt;
      82P&lt;BR&gt;
      82M&lt;BR&gt;
      82PA&lt;BR&gt;
      -&lt;BR&gt;
      -&lt;BR&gt;
      -&lt;BR&gt;
      91E&lt;BR&gt;
      91X&lt;BR&gt;
      91T&lt;BR&gt;
      91B&lt;BR&gt;
      91A&lt;BR&gt;
      91V&lt;BR&gt;
      91W&lt;BR&gt;
      25W&lt;BR&gt;
      25V&lt;BR&gt;
      25P&lt;BR&gt;
      -&lt;BR&gt;
      25S&lt;BR&gt;
      25U&lt;BR&gt;
      25RX&lt;BR&gt;
      25X&lt;BR&gt;
      72XW&lt;BR&gt;
      72XL&lt;BR&gt;
      72PM&lt;BR&gt;
      72RX&lt;BR&gt;
      -&lt;BR&gt;
      72PX&lt;BR&gt;
      72P&lt;BR&gt;
      72RXW&lt;BR&gt;
      72RXL&lt;BR&gt;
      72X&lt;BR&gt;&lt;/FONT&gt;
    &lt;/TD&gt;
    &lt;TD BGCOLOR="#cccccc" ALIGN=CENTER&gt;&lt;FONT FACE=ARIAL SIZE=3&gt;
      -&lt;BR&gt;
      -&lt;BR&gt;
      -&lt;BR&gt;
      T7YB&lt;BR&gt;
      T7YA&lt;BR&gt;
      -&lt;BR&gt;
      -&lt;BR&gt;
      -&lt;BR&gt;
      -&lt;BR&gt;
      -&lt;BR&gt;
      -&lt;BR&gt;
      -&lt;BR&gt;
      -&lt;BR&gt;
      -&lt;BR&gt;
      -&lt;BR&gt;
      -&lt;BR&gt;
      -&lt;BR&gt;
      TXD&lt;BR&gt;
      TYA&lt;BR&gt;
      TYP&lt;BR&gt;
      -&lt;BR&gt;
      TYD&lt;BR&gt;
      TX&lt;BR&gt;
      -&lt;BR&gt;
      150SX&lt;BR&gt;
      100SX&lt;BR&gt;
      102T&lt;BR&gt;
      101S&lt;BR&gt;
      190T&lt;BR&gt;
      150TX&lt;BR&gt;
      101&lt;BR&gt;
      -&lt;BR&gt;
      -&lt;BR&gt;
      101SX&lt;BR&gt;&lt;/FONT&gt;
    &lt;/TD&gt;
    &lt;TD BGCOLOR="#cccccc" ALIGN=CENTER&gt;&lt;FONT FACE=ARIAL SIZE=3&gt;
      ET6P&lt;BR&gt;
      ET6S&lt;BR&gt;
      ET6X&lt;BR&gt;
      RJ-6W/8014EMW&lt;BR&gt;
      RJ-6P/8014EMP&lt;BR&gt;
      RJ-6X/8014EMX&lt;BR&gt;
      TM7W&lt;BR&gt;
      TM7P&lt;BR&gt;
      TM7X&lt;BR&gt;
      -&lt;BR&gt;
      8017SMS&lt;BR&gt;
      -&lt;BR&gt;
      8017SMB&lt;BR&gt;
      8017SMA&lt;BR&gt;
      -&lt;BR&gt;
      -&lt;BR&gt;
      CT-6W&lt;BR&gt;
      CT-6H&lt;BR&gt;
      CT-6P&lt;BR&gt;
      CT-6R&lt;BR&gt;
      -&lt;BR&gt;
      CT-6V&lt;BR&gt;
      CT-6X&lt;BR&gt;
      -&lt;BR&gt;
      -&lt;BR&gt;
      8038EKV&lt;BR&gt;
      -&lt;BR&gt;
      8038EKX&lt;BR&gt;
      -&lt;BR&gt;
      -&lt;BR&gt;
      8038EKP&lt;BR&gt;
      8038EKZ&lt;BR&gt;
      8038EKW&lt;BR&gt;
      -&lt;BR&gt;&lt;/FONT&gt;
    &lt;/TD&gt;
    &lt;TD BGCOLOR="#cccccc" ALIGN=CENTER&gt;&lt;FONT FACE=ARIAL SIZE=3&gt;
      -&lt;BR&gt;
      -&lt;BR&gt;
      -&lt;BR&gt;
      3321H&lt;BR&gt;
      3321P&lt;BR&gt;
      3321N&lt;BR&gt;
      1102H&lt;BR&gt;
      1102P&lt;BR&gt;
      1102T&lt;BR&gt;
      RVA0911V304A&lt;BR&gt;
      -&lt;BR&gt;
      RVA0911H413A&lt;BR&gt;
      RVG0707V100A&lt;BR&gt;
      RVA0607V(H)306A&lt;BR&gt;
      RVA1214H213A&lt;BR&gt;
      -&lt;BR&gt;
      -&lt;BR&gt;
      -&lt;BR&gt;
      -&lt;BR&gt;
      -&lt;BR&gt;
      -&lt;BR&gt;
      -&lt;BR&gt;
      -&lt;BR&gt;
      -&lt;BR&gt;
      3104B&lt;BR&gt;
      3104C&lt;BR&gt;
      3104F&lt;BR&gt;
      3104H&lt;BR&gt;
      -&lt;BR&gt;
      3104M&lt;BR&gt;
      3104P&lt;BR&gt;
      3104S&lt;BR&gt;
      3104W&lt;BR&gt;
      3104X&lt;BR&gt;&lt;/FONT&gt;
    &lt;/TD&gt;
    &lt;TD BGCOLOR="#cccccc" ALIGN=CENTER&gt;&lt;FONT FACE=ARIAL SIZE=3&gt;
      EVMQ0G&lt;BR&gt;
      EVMQIG&lt;BR&gt;
      EVMQ3G&lt;BR&gt;
      EVMS0G&lt;BR&gt;
      EVMQ0G&lt;BR&gt;
      EVMG0G&lt;BR&gt;
      -&lt;BR&gt;
      -&lt;BR&gt;
      -&lt;BR&gt;
      EVMK4GA00B&lt;BR&gt;
      EVM30GA00B&lt;BR&gt;
      EVMK0GA00B&lt;BR&gt;
      EVM38GA00B&lt;BR&gt;
      EVMB6&lt;BR&gt;
      EVLQ0&lt;BR&gt;
      -&lt;BR&gt;
      EVMMSG&lt;BR&gt;
      EVMMBG&lt;BR&gt;
      EVMMAG&lt;BR&gt;
      -&lt;BR&gt;
      -&lt;BR&gt;
      EVMMCS&lt;BR&gt;
      -&lt;BR&gt;
      -&lt;BR&gt;
      -&lt;BR&gt;
      -&lt;BR&gt;
      -&lt;BR&gt;
      EVMM1&lt;BR&gt;
      -&lt;BR&gt;
      -&lt;BR&gt;
      EVMM0&lt;BR&gt;
      -&lt;BR&gt;
      -&lt;BR&gt;
      EVMM3&lt;BR&gt;&lt;/FONT&gt;
    &lt;/TD&gt;
    &lt;TD BGCOLOR="#cccccc" ALIGN=CENTER&gt;&lt;FONT FACE=ARIAL SIZE=3&gt;
      -&lt;BR&gt;
      -&lt;BR&gt;
      -&lt;BR&gt;
      62-3-1&lt;BR&gt;
      62-1-2&lt;BR&gt;
      -&lt;BR&gt;
      -&lt;BR&gt;
      -&lt;BR&gt;
      -&lt;BR&gt;
      -&lt;BR&gt;
      -&lt;BR&gt;
      -&lt;BR&gt;
      -&lt;BR&gt;
      -&lt;BR&gt;
      -&lt;BR&gt;
      -&lt;BR&gt;
      67R&lt;BR&gt;
      -&lt;BR&gt;
      67P&lt;BR&gt;
      -&lt;BR&gt;
      -&lt;BR&gt;
      -&lt;BR&gt;
      -&lt;BR&gt;
      67X&lt;BR&gt;
      63V&lt;BR&gt;
      63S&lt;BR&gt;
      63M&lt;BR&gt;
      -&lt;BR&gt;
      -&lt;BR&gt;
      63H&lt;BR&gt;
      63P&lt;BR&gt;
      -&lt;BR&gt;
      -&lt;BR&gt;
      63X&lt;BR&gt;&lt;/FONT&gt;
    &lt;/TD&gt;
    &lt;TD BGCOLOR="#cccccc" ALIGN=CENTER&gt;&lt;FONT FACE=ARIAL SIZE=3&gt;
      -&lt;BR&gt;
      -&lt;BR&gt;
      -&lt;BR&gt;
      RJ/RJR50&lt;BR&gt;
      RJ/RJR50&lt;BR&gt;
      RJ/RJR50&lt;BR&gt;
      -&lt;BR&gt;
      -&lt;BR&gt;
      -&lt;BR&gt;
      -&lt;BR&gt;
      -&lt;BR&gt;
      -&lt;BR&gt;
      -&lt;BR&gt;
      -&lt;BR&gt;
      -&lt;BR&gt;
      -&lt;BR&gt;
      -&lt;BR&gt;
      -&lt;BR&gt;
      -&lt;BR&gt;
      -&lt;BR&gt;
      -&lt;BR&gt;
      -&lt;BR&gt;
      -&lt;BR&gt;
      -&lt;BR&gt;
      -&lt;BR&gt;
      -&lt;BR&gt;
      -&lt;BR&gt;
      -&lt;BR&gt;
      -&lt;BR&gt;
      -&lt;BR&gt;
      -&lt;BR&gt;
      -&lt;BR&gt;
      -&lt;BR&gt;
      -&lt;BR&gt;&lt;/FONT&gt;
    &lt;/TD&gt;
  &lt;/TR&gt;
&lt;/TABLE&gt;
&lt;P&gt;&amp;nbsp;&lt;P&gt;
&lt;TABLE BORDER=0 CELLSPACING=1 CELLPADDING=3&gt;
  &lt;TR&gt;
    &lt;TD COLSPAN=7&gt;
      &lt;FONT color="#0000FF" SIZE=4 FACE=ARIAL&gt;&lt;B&gt;SMD TRIM-POT CROSS REFERENCE&lt;/B&gt;&lt;/FONT&gt;
      &lt;P&gt;
      &lt;FONT SIZE=4 FACE=ARIAL&gt;&lt;B&gt;MULTI-TURN&lt;/B&gt;&lt;/FONT&gt;
    &lt;/TD&gt;
  &lt;/TR&gt;
  &lt;TR&gt;
    &lt;TD&gt;
      &lt;FONT SIZE=3 FACE=ARIAL&gt;&lt;B&gt;BOURNS&lt;/B&gt;&lt;/FONT&gt;
    &lt;/TD&gt;
    &lt;TD&gt;
      &lt;FONT SIZE=3 FACE=ARIAL&gt;&lt;B&gt;BI&amp;nbsp;TECH&lt;/B&gt;&lt;/FONT&gt;
    &lt;/TD&gt;
    &lt;TD&gt;
      &lt;FONT SIZE=3 FACE=ARIAL&gt;&lt;B&gt;DALE-VISHAY&lt;/B&gt;&lt;/FONT&gt;
    &lt;/TD&gt;
    &lt;TD&gt;
      &lt;FONT SIZE=3 FACE=ARIAL&gt;&lt;B&gt;PHILIPS/MEPCO&lt;/B&gt;&lt;/FONT&gt;
    &lt;/TD&gt;
    &lt;TD&gt;
      &lt;FONT SIZE=3 FACE=ARIAL&gt;&lt;B&gt;PANASONIC&lt;/B&gt;&lt;/FONT&gt;
    &lt;/TD&gt;
    &lt;TD&gt;
      &lt;FONT SIZE=3 FACE=ARIAL&gt;&lt;B&gt;TOCOS&lt;/B&gt;&lt;/FONT&gt;
    &lt;/TD&gt;
    &lt;TD&gt;
      &lt;FONT SIZE=3 FACE=ARIAL&gt;&lt;B&gt;AUX/KYOCERA&lt;/B&gt;&lt;/FONT&gt;
    &lt;/TD&gt;
  &lt;/TR&gt;
  &lt;TR&gt;
    &lt;TD BGCOLOR="#cccccc" ALIGN=CENTER&gt;&lt;FONT FACE=ARIAL SIZE=3&gt;
      3224G&lt;BR&gt;
      3224J&lt;BR&gt;
      3224W&lt;BR&gt;
      3269P&lt;BR&gt;
      3269W&lt;BR&gt;
      3269X&lt;BR&gt;&lt;/FONT&gt;
    &lt;/TD&gt;
    &lt;TD BGCOLOR="#cccccc" ALIGN=CENTER&gt;&lt;FONT FACE=ARIAL SIZE=3&gt;
      44G&lt;BR&gt;
      44J&lt;BR&gt;
      44W&lt;BR&gt;
      84P&lt;BR&gt;
      84W&lt;BR&gt;
      84X&lt;BR&gt;&lt;/FONT&gt;
    &lt;/TD&gt;
    &lt;TD BGCOLOR="#cccccc" ALIGN=CENTER&gt;&lt;FONT FACE=ARIAL SIZE=3&gt;
      -&lt;BR&gt;
      -&lt;BR&gt;
      -&lt;BR&gt;
      ST63Z&lt;BR&gt;
      ST63Y&lt;BR&gt;
      -&lt;BR&gt;&lt;/FONT&gt;
    &lt;/TD&gt;
    &lt;TD BGCOLOR="#cccccc" ALIGN=CENTER&gt;&lt;FONT FACE=ARIAL SIZE=3&gt;
      -&lt;BR&gt;
      -&lt;BR&gt;
      -&lt;BR&gt;
      ST5P&lt;BR&gt;
      ST5W&lt;BR&gt;
      ST5X&lt;BR&gt;&lt;/FONT&gt;
    &lt;/TD&gt;
    &lt;TD BGCOLOR="#cccccc" ALIGN=CENTER&gt;&lt;FONT FACE=ARIAL SIZE=3&gt;
      -&lt;BR&gt;
      -&lt;BR&gt;
      -&lt;BR&gt;
      -&lt;BR&gt;
      -&lt;BR&gt;
      -&lt;BR&gt;&lt;/FONT&gt;
    &lt;/TD&gt;
    &lt;TD BGCOLOR="#cccccc" ALIGN=CENTER&gt;&lt;FONT FACE=ARIAL SIZE=3&gt;
      -&lt;BR&gt;
      -&lt;BR&gt;
      -&lt;BR&gt;
      -&lt;BR&gt;
      -&lt;BR&gt;
      -&lt;BR&gt;&lt;/FONT&gt;
    &lt;/TD&gt;
    &lt;TD BGCOLOR="#cccccc" ALIGN=CENTER&gt;&lt;FONT FACE=ARIAL SIZE=3&gt;
      -&lt;BR&gt;
      -&lt;BR&gt;
      -&lt;BR&gt;
      -&lt;BR&gt;
      -&lt;BR&gt;
      -&lt;BR&gt;&lt;/FONT&gt;
    &lt;/TD&gt;
  &lt;/TR&gt;
  &lt;TR&gt;
    &lt;TD COLSPAN=7&gt;&amp;nbsp;
    &lt;/TD&gt;
  &lt;/TR&gt;
  &lt;TR&gt;
    &lt;TD COLSPAN=7&gt;
      &lt;FONT SIZE=4 FACE=ARIAL&gt;&lt;B&gt;SINGLE TURN&lt;/B&gt;&lt;/FONT&gt;
    &lt;/TD&gt;
  &lt;/TR&gt;
  &lt;TR&gt;
    &lt;TD&gt;
      &lt;FONT SIZE=3 FACE=ARIAL&gt;&lt;B&gt;BOURNS&lt;/B&gt;&lt;/FONT&gt;
    &lt;/TD&gt;
    &lt;TD&gt;
      &lt;FONT SIZE=3 FACE=ARIAL&gt;&lt;B&gt;BI&amp;nbsp;TECH&lt;/B&gt;&lt;/FONT&gt;
    &lt;/TD&gt;
    &lt;TD&gt;
      &lt;FONT SIZE=3 FACE=ARIAL&gt;&lt;B&gt;DALE-VISHAY&lt;/B&gt;&lt;/FONT&gt;
    &lt;/TD&gt;
    &lt;TD&gt;
      &lt;FONT SIZE=3 FACE=ARIAL&gt;&lt;B&gt;PHILIPS/MEPCO&lt;/B&gt;&lt;/FONT&gt;
    &lt;/TD&gt;
    &lt;TD&gt;
      &lt;FONT SIZE=3 FACE=ARIAL&gt;&lt;B&gt;PANASONIC&lt;/B&gt;&lt;/FONT&gt;
    &lt;/TD&gt;
    &lt;TD&gt;
      &lt;FONT SIZE=3 FACE=ARIAL&gt;&lt;B&gt;TOCOS&lt;/B&gt;&lt;/FONT&gt;
    &lt;/TD&gt;
    &lt;TD&gt;
      &lt;FONT SIZE=3 FACE=ARIAL&gt;&lt;B&gt;AUX/KYOCERA&lt;/B&gt;&lt;/FONT&gt;
    &lt;/TD&gt;
  &lt;/TR&gt;
  &lt;TR&gt;
    &lt;TD BGCOLOR="#cccccc" ALIGN=CENTER&gt;&lt;FONT FACE=ARIAL SIZE=3&gt;
      3314G&lt;BR&gt;
      3314J&lt;BR&gt;
      3364A/B&lt;BR&gt;
      3364C/D&lt;BR&gt;
      3364W/X&lt;BR&gt;
      3313G&lt;BR&gt;
      3313J&lt;BR&gt;&lt;/FONT&gt;
    &lt;/TD&gt;
    &lt;TD BGCOLOR="#cccccc" ALIGN=CENTER&gt;&lt;FONT FACE=ARIAL SIZE=3&gt;
      23B&lt;BR&gt;
      23A&lt;BR&gt;
      21X&lt;BR&gt;
      21W&lt;BR&gt;
      -&lt;BR&gt;
      22B&lt;BR&gt;
      22A&lt;BR&gt;&lt;/FONT&gt;
    &lt;/TD&gt;
    &lt;TD BGCOLOR="#cccccc" ALIGN=CENTER&gt;&lt;FONT FACE=ARIAL SIZE=3&gt;
      ST5YL/ST53YL&lt;BR&gt;
      ST5YJ/5T53YJ&lt;BR&gt;
      ST-23A&lt;BR&gt;
      ST-22B&lt;BR&gt;
      ST-22&lt;BR&gt;
      -&lt;BR&gt;
      -&lt;BR&gt;&lt;/FONT&gt;
    &lt;/TD&gt;
    &lt;TD BGCOLOR="#cccccc" ALIGN=CENTER&gt;&lt;FONT FACE=ARIAL SIZE=3&gt;
      ST-4B&lt;BR&gt;
      ST-4A&lt;BR&gt;
      -&lt;BR&gt;
      -&lt;BR&gt;
      -&lt;BR&gt;
      ST-3B&lt;BR&gt;
      ST-3A&lt;BR&gt;&lt;/FONT&gt;
    &lt;/TD&gt;
    &lt;TD BGCOLOR="#cccccc" ALIGN=CENTER&gt;&lt;FONT FACE=ARIAL SIZE=3&gt;
      -&lt;BR&gt;
      EVM-6YS&lt;BR&gt;
      EVM-1E&lt;BR&gt;
      EVM-1G&lt;BR&gt;
      EVM-1D&lt;BR&gt;
      -&lt;BR&gt;
      -&lt;BR&gt;&lt;/FONT&gt;
    &lt;/TD&gt;
    &lt;TD BGCOLOR="#cccccc" ALIGN=CENTER&gt;&lt;FONT FACE=ARIAL SIZE=3&gt;
      G4B&lt;BR&gt;
      G4A&lt;BR&gt;
      TR04-3S1&lt;BR&gt;
      TRG04-2S1&lt;BR&gt;
      -&lt;BR&gt;
      -&lt;BR&gt;
      -&lt;BR&gt;&lt;/FONT&gt;
    &lt;/TD&gt;
    &lt;TD BGCOLOR="#cccccc" ALIGN=CENTER&gt;&lt;FONT FACE=ARIAL SIZE=3&gt;
      -&lt;BR&gt;
      -&lt;BR&gt;
      DVR-43A&lt;BR&gt;
      CVR-42C&lt;BR&gt;
      CVR-42A/C&lt;BR&gt;
      -&lt;BR&gt;
      -&lt;BR&gt;&lt;/FONT&gt;
    &lt;/TD&gt;
  &lt;/TR&gt;
&lt;/TABLE&gt;
&lt;P&gt;
&lt;FONT SIZE=4 FACE=ARIAL&gt;&lt;B&gt;ALT =&amp;nbsp;ALTERNATE&lt;/B&gt;&lt;/FONT&gt;
&lt;P&gt;

&amp;nbsp;
&lt;P&gt;
&lt;/td&gt;
&lt;/tr&gt;
&lt;/table&gt;
&lt;/BODY&gt;&lt;/HTML&gt;</description>
<packages>
<package name="0204/7">
<description>&lt;b&gt;RESISTOR&lt;/b&gt;&lt;p&gt;
type 0204, grid 7.5 mm</description>
<wire x1="3.81" y1="0" x2="2.921" y2="0" width="0.508" layer="51"/>
<wire x1="-3.81" y1="0" x2="-2.921" y2="0" width="0.508" layer="51"/>
<wire x1="-2.54" y1="0.762" x2="-2.286" y2="1.016" width="0.1524" layer="21" curve="-90"/>
<wire x1="-2.54" y1="-0.762" x2="-2.286" y2="-1.016" width="0.1524" layer="21" curve="90"/>
<wire x1="2.286" y1="-1.016" x2="2.54" y2="-0.762" width="0.1524" layer="21" curve="90"/>
<wire x1="2.286" y1="1.016" x2="2.54" y2="0.762" width="0.1524" layer="21" curve="-90"/>
<wire x1="-2.54" y1="-0.762" x2="-2.54" y2="0.762" width="0.1524" layer="21"/>
<wire x1="-2.286" y1="1.016" x2="-1.905" y2="1.016" width="0.1524" layer="21"/>
<wire x1="-1.778" y1="0.889" x2="-1.905" y2="1.016" width="0.1524" layer="21"/>
<wire x1="-2.286" y1="-1.016" x2="-1.905" y2="-1.016" width="0.1524" layer="21"/>
<wire x1="-1.778" y1="-0.889" x2="-1.905" y2="-1.016" width="0.1524" layer="21"/>
<wire x1="1.778" y1="0.889" x2="1.905" y2="1.016" width="0.1524" layer="21"/>
<wire x1="1.778" y1="0.889" x2="-1.778" y2="0.889" width="0.1524" layer="21"/>
<wire x1="1.778" y1="-0.889" x2="1.905" y2="-1.016" width="0.1524" layer="21"/>
<wire x1="1.778" y1="-0.889" x2="-1.778" y2="-0.889" width="0.1524" layer="21"/>
<wire x1="2.286" y1="1.016" x2="1.905" y2="1.016" width="0.1524" layer="21"/>
<wire x1="2.286" y1="-1.016" x2="1.905" y2="-1.016" width="0.1524" layer="21"/>
<wire x1="2.54" y1="-0.762" x2="2.54" y2="0.762" width="0.1524" layer="21"/>
<pad name="1" x="-3.81" y="0" drill="0.8128" shape="octagon"/>
<pad name="2" x="3.81" y="0" drill="0.8128" shape="octagon"/>
<text x="-2.54" y="1.2954" size="0.9906" layer="25" ratio="10">&gt;NAME</text>
<text x="-1.6256" y="-0.4826" size="0.9906" layer="27" ratio="10">&gt;VALUE</text>
<rectangle x1="2.54" y1="-0.254" x2="2.921" y2="0.254" layer="21"/>
<rectangle x1="-2.921" y1="-0.254" x2="-2.54" y2="0.254" layer="21"/>
</package>
</packages>
</library>
</libraries>
<attributes>
</attributes>
<variantdefs>
</variantdefs>
<classes>
<class number="0" name="default" width="0" drill="0">
</class>
</classes>
<designrules name="default">
<description language="de">&lt;b&gt;EAGLE Design Rules&lt;/b&gt;
&lt;p&gt;
Die Standard-Design-Rules sind so gewählt, dass sie für 
die meisten Anwendungen passen. Sollte ihre Platine 
besondere Anforderungen haben, treffen Sie die erforderlichen
Einstellungen hier und speichern die Design Rules unter 
einem neuen Namen ab.</description>
<description language="en">&lt;b&gt;EAGLE Design Rules&lt;/b&gt;
&lt;p&gt;
The default Design Rules have been set to cover
a wide range of applications. Your particular design
may have different requirements, so please make the
necessary adjustments and save your customized
design rules under a new name.</description>
<param name="layerSetup" value="(1*16)"/>
<param name="mtCopper" value="0.035mm 0.035mm 0.035mm 0.035mm 0.035mm 0.035mm 0.035mm 0.035mm 0.035mm 0.035mm 0.035mm 0.035mm 0.035mm 0.035mm 0.035mm 0.035mm"/>
<param name="mtIsolate" value="1.5mm 0.15mm 0.2mm 0.15mm 0.2mm 0.15mm 0.2mm 0.15mm 0.2mm 0.15mm 0.2mm 0.15mm 0.2mm 0.15mm 0.2mm"/>
<param name="mdWireWire" value="8mil"/>
<param name="mdWirePad" value="8mil"/>
<param name="mdWireVia" value="8mil"/>
<param name="mdPadPad" value="8mil"/>
<param name="mdPadVia" value="8mil"/>
<param name="mdViaVia" value="8mil"/>
<param name="mdSmdPad" value="8mil"/>
<param name="mdSmdVia" value="8mil"/>
<param name="mdSmdSmd" value="8mil"/>
<param name="mdViaViaSameLayer" value="8mil"/>
<param name="mnLayersViaInSmd" value="2"/>
<param name="mdCopperDimension" value="40mil"/>
<param name="mdDrill" value="8mil"/>
<param name="mdSmdStop" value="0mil"/>
<param name="msWidth" value="10mil"/>
<param name="msDrill" value="24mil"/>
<param name="msMicroVia" value="9.99mm"/>
<param name="msBlindViaRatio" value="0.5"/>
<param name="rvPadTop" value="0.25"/>
<param name="rvPadInner" value="0.25"/>
<param name="rvPadBottom" value="0.25"/>
<param name="rvViaOuter" value="0.25"/>
<param name="rvViaInner" value="0.25"/>
<param name="rvMicroViaOuter" value="0.25"/>
<param name="rvMicroViaInner" value="0.25"/>
<param name="rlMinPadTop" value="10mil"/>
<param name="rlMaxPadTop" value="20mil"/>
<param name="rlMinPadInner" value="10mil"/>
<param name="rlMaxPadInner" value="20mil"/>
<param name="rlMinPadBottom" value="10mil"/>
<param name="rlMaxPadBottom" value="20mil"/>
<param name="rlMinViaOuter" value="8mil"/>
<param name="rlMaxViaOuter" value="20mil"/>
<param name="rlMinViaInner" value="8mil"/>
<param name="rlMaxViaInner" value="20mil"/>
<param name="rlMinMicroViaOuter" value="4mil"/>
<param name="rlMaxMicroViaOuter" value="20mil"/>
<param name="rlMinMicroViaInner" value="4mil"/>
<param name="rlMaxMicroViaInner" value="20mil"/>
<param name="psTop" value="-1"/>
<param name="psBottom" value="-1"/>
<param name="psFirst" value="-1"/>
<param name="psElongationLong" value="100"/>
<param name="psElongationOffset" value="100"/>
<param name="mvStopFrame" value="1"/>
<param name="mvCreamFrame" value="0"/>
<param name="mlMinStopFrame" value="4mil"/>
<param name="mlMaxStopFrame" value="4mil"/>
<param name="mlMinCreamFrame" value="0mil"/>
<param name="mlMaxCreamFrame" value="0mil"/>
<param name="mlViaStopLimit" value="0mil"/>
<param name="srRoundness" value="0"/>
<param name="srMinRoundness" value="0mil"/>
<param name="srMaxRoundness" value="0mil"/>
<param name="slThermalIsolate" value="10mil"/>
<param name="slThermalsForVias" value="0"/>
<param name="dpMaxLengthDifference" value="10mm"/>
<param name="dpGapFactor" value="2.5"/>
<param name="checkGrid" value="0"/>
<param name="checkAngle" value="0"/>
<param name="checkFont" value="1"/>
<param name="checkRestrict" value="1"/>
<param name="useDiameter" value="13"/>
<param name="maxErrors" value="50"/>
</designrules>
<autorouter>
<pass name="Default">
<param name="RoutingGrid" value="12.5mil"/>
<param name="AutoGrid" value="1"/>
<param name="Efforts" value="0"/>
<param name="TopRouterVariant" value="1"/>
<param name="tpViaShape" value="round"/>
<param name="PrefDir.1" value="-"/>
<param name="PrefDir.2" value="0"/>
<param name="PrefDir.3" value="0"/>
<param name="PrefDir.4" value="0"/>
<param name="PrefDir.5" value="0"/>
<param name="PrefDir.6" value="0"/>
<param name="PrefDir.7" value="0"/>
<param name="PrefDir.8" value="0"/>
<param name="PrefDir.9" value="0"/>
<param name="PrefDir.10" value="0"/>
<param name="PrefDir.11" value="0"/>
<param name="PrefDir.12" value="0"/>
<param name="PrefDir.13" value="0"/>
<param name="PrefDir.14" value="0"/>
<param name="PrefDir.15" value="0"/>
<param name="PrefDir.16" value="|"/>
<param name="cfVia" value="8"/>
<param name="cfNonPref" value="5"/>
<param name="cfChangeDir" value="2"/>
<param name="cfOrthStep" value="2"/>
<param name="cfDiagStep" value="3"/>
<param name="cfExtdStep" value="0"/>
<param name="cfBonusStep" value="1"/>
<param name="cfMalusStep" value="1"/>
<param name="cfPadImpact" value="4"/>
<param name="cfSmdImpact" value="4"/>
<param name="cfBusImpact" value="0"/>
<param name="cfHugging" value="3"/>
<param name="cfAvoid" value="4"/>
<param name="cfPolygon" value="10"/>
<param name="cfBase.1" value="0"/>
<param name="cfBase.2" value="1"/>
<param name="cfBase.3" value="1"/>
<param name="cfBase.4" value="1"/>
<param name="cfBase.5" value="1"/>
<param name="cfBase.6" value="1"/>
<param name="cfBase.7" value="1"/>
<param name="cfBase.8" value="1"/>
<param name="cfBase.9" value="1"/>
<param name="cfBase.10" value="1"/>
<param name="cfBase.11" value="1"/>
<param name="cfBase.12" value="1"/>
<param name="cfBase.13" value="1"/>
<param name="cfBase.14" value="1"/>
<param name="cfBase.15" value="1"/>
<param name="cfBase.16" value="0"/>
<param name="mnVias" value="20"/>
<param name="mnSegments" value="9999"/>
<param name="mnExtdSteps" value="9999"/>
<param name="mnRipupLevel" value="10"/>
<param name="mnRipupSteps" value="100"/>
<param name="mnRipupTotal" value="100"/>
</pass>
<pass name="Follow-me" refer="Default" active="yes">
</pass>
<pass name="Busses" refer="Default" active="yes">
<param name="cfNonPref" value="4"/>
<param name="cfBusImpact" value="4"/>
<param name="cfHugging" value="0"/>
<param name="mnVias" value="0"/>
</pass>
<pass name="Route" refer="Default" active="yes">
</pass>
<pass name="Optimize1" refer="Default" active="yes">
<param name="cfVia" value="99"/>
<param name="cfExtdStep" value="10"/>
<param name="cfHugging" value="1"/>
<param name="mnExtdSteps" value="1"/>
<param name="mnRipupLevel" value="0"/>
</pass>
<pass name="Optimize2" refer="Optimize1" active="yes">
<param name="cfNonPref" value="0"/>
<param name="cfChangeDir" value="6"/>
<param name="cfExtdStep" value="0"/>
<param name="cfBonusStep" value="2"/>
<param name="cfMalusStep" value="2"/>
<param name="cfPadImpact" value="2"/>
<param name="cfSmdImpact" value="2"/>
<param name="cfHugging" value="0"/>
</pass>
<pass name="Optimize3" refer="Optimize2" active="yes">
<param name="cfChangeDir" value="8"/>
<param name="cfPadImpact" value="0"/>
<param name="cfSmdImpact" value="0"/>
</pass>
<pass name="Optimize4" refer="Optimize3" active="yes">
<param name="cfChangeDir" value="25"/>
</pass>
</autorouter>
<elements>
<element name="JP1" library="pinhead" package="1X01" value="GND" x="0" y="12.7"/>
<element name="JP2" library="pinhead" package="1X01" value="Trigger" x="22.86" y="12.7"/>
<element name="JP3" library="pinhead" package="1X01" value="Output" x="48.26" y="12.7"/>
<element name="JP4" library="pinhead" package="1X01" value="Reset" x="81.28" y="12.7"/>
<element name="JP5" library="pinhead" package="1X01" value="Control Voltage" x="81.28" y="68.58"/>
<element name="JP6" library="pinhead" package="1X01" value="Threashold" x="48.26" y="68.58"/>
<element name="JP7" library="pinhead" package="1X01" value="Discharge" x="25.4" y="68.58"/>
<element name="JP8" library="pinhead" package="1X01" value="Vcc" x="0" y="68.58"/>
<element name="Q1" library="transistor-neu-to92" package="TO92-EBC" value="2N3904" x="-1.27" y="27.94" rot="R90"/>
<element name="Q10" library="transistor-neu-to92" package="TO92-EBC" value="2N3906" x="39.37" y="35.56" rot="R270"/>
<element name="Q11" library="transistor-neu-to92" package="TO92-EBC" value="2N3906" x="46.99" y="38.1" rot="R270"/>
<element name="Q12" library="transistor-neu-to92" package="TO92-EBC" value="2N3906" x="57.15" y="38.1" rot="R270"/>
<element name="Q13" library="transistor-neu-to92" package="TO92-EBC" value="2N3906" x="64.77" y="35.56" rot="R270"/>
<element name="Q14" library="transistor-neu-to92" package="TO92-EBC" value="2N3904" x="80.01" y="17.78" rot="R90"/>
<element name="Q15" library="transistor-neu-to92" package="TO92-EBC" value="2N3904" x="69.85" y="30.48" rot="R90"/>
<element name="Q16" library="transistor-neu-to92" package="TO92-EBC" value="2N3904" x="74.93" y="33.02" rot="R90"/>
<element name="Q17" library="transistor-neu-to92" package="TO92-EBC" value="2N3904" x="80.01" y="35.56" rot="R90"/>
<element name="Q18" library="transistor-neu-to92" package="TO92-EBC" value="2N3904" x="72.39" y="38.1" rot="R90"/>
<element name="Q19A" library="transistor-neu-to92" package="TO92-EBC" value="2N3906" x="67.31" y="63.5" rot="R270"/>
<element name="Q19B" library="transistor-neu-to92" package="TO92-EBC" value="2N3906" x="59.69" y="63.5" rot="R270"/>
<element name="Q2" library="transistor-neu-to92" package="TO92-EBC" value="2N3904" x="6.35" y="25.4" rot="R90"/>
<element name="Q20" library="transistor-neu-to92" package="TO92-EBC" value="2N3904" x="80.01" y="60.96" rot="R90"/>
<element name="Q21" library="transistor-neu-to92" package="TO92-EBC" value="2N3904" x="87.63" y="63.5" rot="R90"/>
<element name="Q22" library="transistor-neu-to92" package="TO92-EBC" value="2N3904" x="100.33" y="63.5" rot="R90"/>
<element name="Q23" library="transistor-neu-to92" package="TO92-EBC" value="2N3906" x="97.79" y="48.26" rot="R270"/>
<element name="Q24" library="transistor-neu-to92" package="TO92-EBC" value="2N3904" x="77.47" y="50.8" rot="R90"/>
<element name="Q25" library="transistor-neu-to92" package="TO92-EBC" value="2N3906" x="97.79" y="20.32" rot="R270"/>
<element name="Q3" library="transistor-neu-to92" package="TO92-EBC" value="2N3904" x="13.97" y="25.4" rot="R90"/>
<element name="Q4" library="transistor-neu-to92" package="TO92-EBC" value="2N3904" x="21.59" y="27.94" rot="R90"/>
<element name="Q5" library="transistor-neu-to92" package="TO92-EBC" value="2N3906" x="3.81" y="55.88" rot="R270"/>
<element name="Q6" library="transistor-neu-to92" package="TO92-EBC" value="2N3906" x="13.97" y="55.88" rot="R270"/>
<element name="Q7" library="transistor-neu-to92" package="TO92-EBC" value="2N3906" x="19.05" y="55.88" rot="R270"/>
<element name="Q8" library="transistor-neu-to92" package="TO92-EBC" value="2N3906" x="26.67" y="55.88" rot="R270"/>
<element name="Q9" library="transistor-neu-to92" package="TO92-EBC" value="2N3906" x="44.45" y="55.88" rot="R270"/>
<element name="R1" library="resistor" package="0204/7" value="4k7" x="5.08" y="62.23" rot="R90"/>
<element name="R10" library="resistor" package="0204/7" value="15k" x="53.34" y="52.07" rot="R90"/>
<element name="R11" library="resistor" package="0204/7" value="4k7" x="68.58" y="57.15" rot="R90"/>
<element name="R12" library="resistor" package="0204/7" value="6k8" x="71.12" y="62.23" rot="R90"/>
<element name="R13" library="resistor" package="0204/7" value="3k9" x="86.36" y="57.15" rot="R90"/>
<element name="R14" library="resistor" package="0204/7" value="220R" x="83.82" y="54.61" rot="R90"/>
<element name="R15" library="resistor" package="0204/7" value="4k7" x="58.42" y="19.05" rot="R270"/>
<element name="R16" library="resistor" package="0204/7" value="100R" x="76.2" y="21.59" rot="R270"/>
<element name="R17" library="resistor" package="0204/7" value="100k" x="93.98" y="16.51" rot="R270"/>
<element name="R2" library="resistor" package="0204/7" value="820R" x="15.24" y="62.23" rot="R90"/>
<element name="R3" library="resistor" package="0204/7" value="4k7" x="22.86" y="62.23" rot="R90"/>
<element name="R4" library="resistor" package="0204/7" value="1k" x="40.64" y="62.23" rot="R90"/>
<element name="R5" library="resistor" package="0204/7" value="10k" x="10.16" y="19.05" rot="R270"/>
<element name="R6" library="resistor" package="0204/7" value="100k" x="43.18" y="19.05" rot="R270"/>
<element name="R7" library="resistor" package="0204/7" value="4k7" x="33.02" y="62.23" rot="R90"/>
<element name="R8" library="resistor" package="0204/7" value="4k7" x="35.56" y="26.67" rot="R90"/>
<element name="R9" library="resistor" package="0204/7" value="4k7" x="30.48" y="19.05" rot="R90"/>
</elements>
<signals>
<signal name="N$2">
<contactref element="Q1" pad="C"/>
<contactref element="Q2" pad="C"/>
<contactref element="Q5" pad="B"/>
<contactref element="Q5" pad="C"/>
<contactref element="Q6" pad="B"/>
<wire x1="7.62" y1="27.94" x2="10.16" y2="27.94" width="0.4064" layer="16"/>
<wire x1="0" y1="30.48" x2="10.16" y2="30.48" width="0.4064" layer="16"/>
<wire x1="10.16" y1="30.48" x2="10.16" y2="27.94" width="0.4064" layer="1"/>
<via x="10.16" y="30.48" extent="1-16" drill="0.6" shape="square"/>
<via x="10.16" y="27.94" extent="1-16" drill="0.6" shape="square"/>
<wire x1="2.54" y1="55.88" x2="5.08" y2="55.88" width="0.4064" layer="16"/>
<wire x1="5.08" y1="55.88" x2="7.62" y2="55.88" width="0.4064" layer="16"/>
<wire x1="7.62" y1="55.88" x2="12.7" y2="55.88" width="0.4064" layer="16"/>
<wire x1="2.54" y1="53.34" x2="5.08" y2="53.34" width="0.4064" layer="16"/>
<wire x1="5.08" y1="55.88" x2="5.08" y2="53.34" width="0.4064" layer="1"/>
<via x="5.08" y="53.34" extent="1-16" drill="0.6" shape="square"/>
<wire x1="7.62" y1="30.48" x2="10.16" y2="30.48" width="0.4064" layer="16"/>
<wire x1="7.62" y1="55.88" x2="7.62" y2="30.48" width="0.4064" layer="1"/>
<via x="7.62" y="55.88" extent="1-16" drill="0.6" shape="square"/>
<via x="7.62" y="30.48" extent="1-16" drill="0.6" shape="square"/>
<via x="5.08" y="55.88" extent="1-16" drill="0.6" shape="square"/>
</signal>
<signal name="N$4">
<contactref element="Q1" pad="E"/>
<contactref element="Q2" pad="B"/>
<wire x1="7.62" y1="25.4" x2="0" y2="25.4" width="0.4064" layer="16"/>
</signal>
<signal name="N$5">
<contactref element="R1" pad="1"/>
<contactref element="Q5" pad="E"/>
<wire x1="5.08" y1="58.42" x2="2.54" y2="58.42" width="0.4064" layer="16"/>
</signal>
<signal name="N$7">
<contactref element="R2" pad="1"/>
<contactref element="Q6" pad="E"/>
<contactref element="Q7" pad="E"/>
<wire x1="12.7" y1="58.42" x2="17.78" y2="58.42" width="0.4064" layer="16"/>
<wire x1="17.78" y1="58.42" x2="15.24" y2="58.42" width="0" layer="19" extent="1-1"/>
</signal>
<signal name="N$9">
<contactref element="Q3" pad="C"/>
<contactref element="Q4" pad="C"/>
<contactref element="Q7" pad="B"/>
<contactref element="Q8" pad="B"/>
<contactref element="Q8" pad="C"/>
<wire x1="15.24" y1="27.94" x2="17.78" y2="27.94" width="0.4064" layer="16"/>
<wire x1="22.86" y1="30.48" x2="20.32" y2="30.48" width="0.4064" layer="16"/>
<wire x1="20.32" y1="30.48" x2="17.78" y2="30.48" width="0.4064" layer="16"/>
<wire x1="17.78" y1="30.48" x2="17.78" y2="27.94" width="0.4064" layer="1"/>
<via x="17.78" y="30.48" extent="1-16" drill="0.6" shape="square"/>
<via x="17.78" y="27.94" extent="1-16" drill="0.6" shape="square"/>
<wire x1="17.78" y1="55.88" x2="20.32" y2="55.88" width="0.4064" layer="16"/>
<wire x1="20.32" y1="55.88" x2="22.86" y2="55.88" width="0.4064" layer="16"/>
<wire x1="22.86" y1="55.88" x2="25.4" y2="55.88" width="0.4064" layer="16"/>
<wire x1="20.32" y1="30.48" x2="20.32" y2="55.88" width="0.4064" layer="1"/>
<via x="20.32" y="55.88" extent="1-16" drill="0.6" shape="square"/>
<via x="20.32" y="30.48" extent="1-16" drill="0.6" shape="square"/>
<wire x1="25.4" y1="53.34" x2="22.86" y2="53.34" width="0.4064" layer="16"/>
<wire x1="22.86" y1="55.88" x2="22.86" y2="53.34" width="0.4064" layer="1"/>
<via x="22.86" y="55.88" extent="1-16" drill="0.6" shape="square"/>
<via x="22.86" y="53.34" extent="1-16" drill="0.6" shape="square"/>
</signal>
<signal name="N$11">
<contactref element="R3" pad="1"/>
<contactref element="Q8" pad="E"/>
<wire x1="25.4" y1="58.42" x2="22.86" y2="58.42" width="0.4064" layer="16"/>
</signal>
<signal name="VCC">
<contactref element="R1" pad="2"/>
<contactref element="R3" pad="2"/>
<contactref element="R2" pad="2"/>
<contactref element="JP8" pad="1"/>
<contactref element="R7" pad="2"/>
<contactref element="R4" pad="2"/>
<contactref element="R12" pad="2"/>
<contactref element="Q19B" pad="E"/>
<contactref element="Q19A" pad="E"/>
<contactref element="Q21" pad="C"/>
<contactref element="Q22" pad="C"/>
<wire x1="2.54" y1="66.04" x2="40.64" y2="66.04" width="0.4064" layer="16"/>
<wire x1="40.64" y1="66.04" x2="66.04" y2="66.04" width="0.4064" layer="16"/>
<wire x1="71.12" y1="66.04" x2="66.04" y2="66.04" width="0.4064" layer="16"/>
<wire x1="101.6" y1="66.04" x2="71.12" y2="66.04" width="0.4064" layer="16"/>
<wire x1="0" y1="68.58" x2="2.54" y2="68.58" width="0.4064" layer="16"/>
<wire x1="2.54" y1="68.58" x2="2.54" y2="66.04" width="0.4064" layer="1"/>
<via x="2.54" y="68.58" extent="1-16" drill="0.6" shape="square"/>
<via x="2.54" y="66.04" extent="1-16" drill="0.6" shape="square"/>
<wire x1="101.6" y1="66.04" x2="88.9" y2="66.04" width="0" layer="19" extent="1-1"/>
<wire x1="5.08" y1="66.04" x2="2.54" y2="66.04" width="0" layer="19" extent="16-16"/>
<wire x1="58.42" y1="66.04" x2="66.04" y2="66.04" width="0" layer="19" extent="1-1"/>
<wire x1="33.02" y1="66.04" x2="40.64" y2="66.04" width="0" layer="19" extent="1-1"/>
<wire x1="22.86" y1="66.04" x2="33.02" y2="66.04" width="0" layer="19" extent="1-1"/>
<wire x1="15.24" y1="66.04" x2="22.86" y2="66.04" width="0" layer="19" extent="1-1"/>
</signal>
<signal name="N$13">
<contactref element="JP6" pad="1"/>
<contactref element="Q1" pad="B"/>
<wire x1="48.26" y1="68.58" x2="38.1" y2="68.58" width="0.4064" layer="16"/>
<wire x1="0" y1="27.94" x2="2.54" y2="27.94" width="0.4064" layer="16"/>
<wire x1="2.54" y1="48.26" x2="2.54" y2="27.94" width="0.4064" layer="1"/>
<via x="2.54" y="27.94" extent="1-16" drill="0.6" shape="square"/>
<wire x1="38.1" y1="48.26" x2="2.54" y2="48.26" width="0.4064" layer="16"/>
<via x="2.54" y="48.26" extent="1-16" drill="0.6" shape="square"/>
<wire x1="38.1" y1="68.58" x2="38.1" y2="48.26" width="0.4064" layer="1"/>
<via x="38.1" y="48.26" extent="1-16" drill="0.6" shape="square"/>
<via x="38.1" y="68.58" extent="1-16" drill="0.6" shape="square"/>
</signal>
<signal name="N$14">
<contactref element="R5" pad="1"/>
<contactref element="Q2" pad="E"/>
<contactref element="Q3" pad="E"/>
<wire x1="7.62" y1="22.86" x2="15.24" y2="22.86" width="0.4064" layer="16"/>
<wire x1="7.62" y1="22.86" x2="10.16" y2="22.86" width="0" layer="19" extent="1-1"/>
</signal>
<signal name="GND">
<contactref element="R5" pad="2"/>
<contactref element="JP1" pad="1"/>
<contactref element="Q7" pad="C"/>
<contactref element="R9" pad="1"/>
<contactref element="Q10" pad="C"/>
<contactref element="R6" pad="2"/>
<contactref element="Q15" pad="E"/>
<contactref element="Q16" pad="E"/>
<contactref element="Q17" pad="E"/>
<contactref element="R15" pad="2"/>
<contactref element="Q24" pad="E"/>
<contactref element="Q14" pad="E"/>
<wire x1="2.54" y1="15.24" x2="40.64" y2="15.24" width="0.4064" layer="16"/>
<wire x1="40.64" y1="15.24" x2="58.42" y2="15.24" width="0.4064" layer="16"/>
<wire x1="38.1" y1="33.02" x2="40.64" y2="33.02" width="0.4064" layer="16"/>
<wire x1="40.64" y1="33.02" x2="40.64" y2="15.24" width="0.4064" layer="1"/>
<via x="40.64" y="33.02" extent="1-16" drill="0.6" shape="square"/>
<via x="40.64" y="15.24" extent="1-16" drill="0.6" shape="square"/>
<wire x1="81.28" y1="15.24" x2="58.42" y2="15.24" width="0.4064" layer="16"/>
<wire x1="0" y1="12.7" x2="2.54" y2="12.7" width="0.4064" layer="16"/>
<wire x1="2.54" y1="15.24" x2="2.54" y2="12.7" width="0.4064" layer="1"/>
<via x="2.54" y="12.7" extent="1-16" drill="0.6" shape="square"/>
<via x="2.54" y="15.24" extent="1-16" drill="0.6" shape="square"/>
<wire x1="38.1" y1="33.02" x2="15.24" y2="33.02" width="0.4064" layer="16"/>
<wire x1="17.78" y1="53.34" x2="15.24" y2="53.34" width="0.4064" layer="16"/>
<wire x1="15.24" y1="53.34" x2="15.24" y2="33.02" width="0.4064" layer="1"/>
<via x="15.24" y="53.34" extent="1-16" drill="0.6" shape="square"/>
<via x="15.24" y="33.02" extent="1-16" drill="0.6" shape="square"/>
<wire x1="78.74" y1="48.26" x2="83.82" y2="48.26" width="0.4064" layer="16"/>
<wire x1="81.28" y1="33.02" x2="83.82" y2="33.02" width="0.4064" layer="16"/>
<wire x1="83.82" y1="48.26" x2="83.82" y2="33.02" width="0.4064" layer="1"/>
<via x="83.82" y="48.26" extent="1-16" drill="0.6" shape="square"/>
<via x="83.82" y="33.02" extent="1-16" drill="0.6" shape="square"/>
<wire x1="71.12" y1="27.94" x2="78.74" y2="27.94" width="0.4064" layer="16"/>
<wire x1="78.74" y1="27.94" x2="83.82" y2="27.94" width="0.4064" layer="16"/>
<wire x1="83.82" y1="27.94" x2="86.36" y2="27.94" width="0.4064" layer="16"/>
<wire x1="81.28" y1="15.24" x2="83.82" y2="15.24" width="0.4064" layer="16"/>
<wire x1="76.2" y1="30.48" x2="78.74" y2="30.48" width="0.4064" layer="16"/>
<wire x1="83.82" y1="33.02" x2="86.36" y2="33.02" width="0.4064" layer="16"/>
<wire x1="83.82" y1="27.94" x2="83.82" y2="15.24" width="0.4064" layer="1"/>
<via x="83.82" y="15.24" extent="1-16" drill="0.6" shape="square"/>
<via x="83.82" y="27.94" extent="1-16" drill="0.6" shape="square"/>
<wire x1="78.74" y1="30.48" x2="78.74" y2="27.94" width="0.4064" layer="1"/>
<via x="78.74" y="27.94" extent="1-16" drill="0.6" shape="square"/>
<wire x1="86.36" y1="33.02" x2="86.36" y2="27.94" width="0.4064" layer="1"/>
<via x="86.36" y="33.02" extent="1-16" drill="0.6" shape="square"/>
<via x="86.36" y="27.94" extent="1-16" drill="0.6" shape="square"/>
<via x="78.74" y="30.48" extent="1-16" drill="0.6" shape="square"/>
<wire x1="40.64" y1="15.24" x2="43.18" y2="15.24" width="0" layer="19" extent="16-16"/>
<wire x1="10.16" y1="15.24" x2="2.54" y2="15.24" width="0" layer="19" extent="16-16"/>
<wire x1="30.48" y1="15.24" x2="40.64" y2="15.24" width="0" layer="19" extent="16-16"/>
</signal>
<signal name="N$15">
<contactref element="Q3" pad="B"/>
<contactref element="Q4" pad="E"/>
<wire x1="22.86" y1="25.4" x2="15.24" y2="25.4" width="0.4064" layer="16"/>
</signal>
<signal name="N$18">
<contactref element="R7" pad="1"/>
<contactref element="R8" pad="2"/>
<contactref element="JP5" pad="1"/>
<contactref element="Q4" pad="B"/>
<wire x1="35.56" y1="30.48" x2="30.48" y2="30.48" width="0.4064" layer="16"/>
<wire x1="30.48" y1="30.48" x2="38.1" y2="30.48" width="0.4064" layer="16"/>
<wire x1="22.86" y1="27.94" x2="38.1" y2="27.94" width="0.4064" layer="16"/>
<wire x1="33.02" y1="58.42" x2="30.48" y2="58.42" width="0.4064" layer="16"/>
<wire x1="38.1" y1="30.48" x2="38.1" y2="27.94" width="0.4064" layer="1"/>
<via x="38.1" y="27.94" extent="1-16" drill="0.6" shape="square"/>
<via x="38.1" y="30.48" extent="1-16" drill="0.6" shape="square"/>
<wire x1="30.48" y1="58.42" x2="30.48" y2="30.48" width="0.4064" layer="1"/>
<via x="30.48" y="30.48" extent="1-16" drill="0.6" shape="square"/>
<via x="30.48" y="58.42" extent="1-16" drill="0.6" shape="square"/>
<wire x1="33.02" y1="58.42" x2="35.56" y2="58.42" width="0.4064" layer="16"/>
<wire x1="81.28" y1="68.58" x2="78.74" y2="68.58" width="0.4064" layer="16"/>
<wire x1="35.56" y1="71.12" x2="35.56" y2="58.42" width="0.4064" layer="1"/>
<via x="35.56" y="58.42" extent="1-16" drill="0.6" shape="square"/>
<wire x1="78.74" y1="71.12" x2="35.56" y2="71.12" width="0.4064" layer="16"/>
<via x="35.56" y="71.12" extent="1-16" drill="0.6" shape="square"/>
<wire x1="78.74" y1="71.12" x2="78.74" y2="68.58" width="0.4064" layer="1"/>
<via x="78.74" y="71.12" extent="1-16" drill="0.6" shape="square"/>
<via x="78.74" y="68.58" extent="1-16" drill="0.6" shape="square"/>
</signal>
<signal name="N$19">
<contactref element="R8" pad="1"/>
<contactref element="R9" pad="2"/>
<contactref element="Q13" pad="B"/>
<wire x1="35.56" y1="22.86" x2="30.48" y2="22.86" width="0.4064" layer="16"/>
<wire x1="35.56" y1="22.86" x2="38.1" y2="22.86" width="0.4064" layer="16"/>
<wire x1="38.1" y1="25.4" x2="38.1" y2="22.86" width="0.4064" layer="1"/>
<via x="38.1" y="22.86" extent="1-16" drill="0.6" shape="square"/>
<wire x1="38.1" y1="25.4" x2="60.96" y2="25.4" width="0.4064" layer="16"/>
<via x="38.1" y="25.4" extent="1-16" drill="0.6" shape="square"/>
<wire x1="60.96" y1="35.56" x2="60.96" y2="25.4" width="0.4064" layer="1"/>
<via x="60.96" y="25.4" extent="1-16" drill="0.6" shape="square"/>
<wire x1="63.5" y1="35.56" x2="60.96" y2="35.56" width="0.4064" layer="16"/>
<via x="60.96" y="35.56" extent="1-16" drill="0.6" shape="square"/>
</signal>
<signal name="N$1">
<contactref element="Q10" pad="E"/>
<contactref element="Q11" pad="B"/>
<wire x1="38.1" y1="38.1" x2="45.72" y2="38.1" width="0.4064" layer="16"/>
</signal>
<signal name="N$6">
<contactref element="Q12" pad="B"/>
<contactref element="Q13" pad="E"/>
<wire x1="63.5" y1="38.1" x2="55.88" y2="38.1" width="0.4064" layer="16"/>
</signal>
<signal name="N$8">
<contactref element="Q12" pad="C"/>
<contactref element="Q13" pad="C"/>
<wire x1="63.5" y1="33.02" x2="53.34" y2="33.02" width="0.4064" layer="16"/>
<wire x1="55.88" y1="35.56" x2="53.34" y2="35.56" width="0.4064" layer="16"/>
<wire x1="53.34" y1="35.56" x2="53.34" y2="33.02" width="0.4064" layer="1"/>
<via x="53.34" y="35.56" extent="1-16" drill="0.6" shape="square"/>
<via x="53.34" y="33.02" extent="1-16" drill="0.6" shape="square"/>
</signal>
<signal name="N$10">
<contactref element="Q9" pad="C"/>
<contactref element="Q11" pad="E"/>
<contactref element="Q12" pad="E"/>
<wire x1="55.88" y1="40.64" x2="45.72" y2="40.64" width="0.4064" layer="16"/>
<wire x1="45.72" y1="40.64" x2="40.64" y2="40.64" width="0.4064" layer="16"/>
<wire x1="43.18" y1="53.34" x2="40.64" y2="53.34" width="0.4064" layer="16"/>
<wire x1="40.64" y1="53.34" x2="40.64" y2="40.64" width="0.4064" layer="1"/>
<via x="40.64" y="40.64" extent="1-16" drill="0.6" shape="square"/>
<via x="40.64" y="53.34" extent="1-16" drill="0.6" shape="square"/>
</signal>
<signal name="N$16">
<contactref element="JP2" pad="1"/>
<contactref element="Q10" pad="B"/>
<wire x1="38.1" y1="35.56" x2="33.02" y2="35.56" width="0.4064" layer="16"/>
<wire x1="22.86" y1="12.7" x2="33.02" y2="12.7" width="0.4064" layer="16"/>
<wire x1="33.02" y1="35.56" x2="33.02" y2="12.7" width="0.4064" layer="1"/>
<via x="33.02" y="35.56" extent="1-16" drill="0.6" shape="square"/>
<via x="33.02" y="12.7" extent="1-16" drill="0.6" shape="square"/>
</signal>
<signal name="N$20">
<contactref element="R4" pad="1"/>
<contactref element="Q9" pad="E"/>
<wire x1="43.18" y1="58.42" x2="40.64" y2="58.42" width="0.4064" layer="16"/>
</signal>
<signal name="N$23">
<contactref element="R10" pad="2"/>
<contactref element="Q9" pad="B"/>
<contactref element="Q19B" pad="B"/>
<contactref element="Q19B" pad="C"/>
<contactref element="Q19A" pad="B"/>
<wire x1="43.18" y1="55.88" x2="53.34" y2="55.88" width="0.4064" layer="16"/>
<wire x1="58.42" y1="60.96" x2="55.88" y2="60.96" width="0.4064" layer="16"/>
<wire x1="53.34" y1="55.88" x2="55.88" y2="55.88" width="0.4064" layer="16"/>
<wire x1="58.42" y1="63.5" x2="66.04" y2="63.5" width="0.4064" layer="16"/>
<wire x1="55.88" y1="60.96" x2="55.88" y2="55.88" width="0.4064" layer="1"/>
<via x="55.88" y="55.88" extent="1-16" drill="0.6" shape="square"/>
<via x="55.88" y="60.96" extent="1-16" drill="0.6" shape="square"/>
<wire x1="58.42" y1="60.96" x2="58.42" y2="63.5" width="0" layer="19" extent="1-1"/>
</signal>
<signal name="N$24">
<contactref element="R11" pad="2"/>
<contactref element="Q17" pad="C"/>
<contactref element="Q19A" pad="C"/>
<contactref element="Q20" pad="B"/>
<wire x1="66.04" y1="60.96" x2="81.28" y2="60.96" width="0.4064" layer="16"/>
<wire x1="66.04" y1="60.96" x2="63.5" y2="60.96" width="0.4064" layer="16"/>
<wire x1="81.28" y1="38.1" x2="78.74" y2="38.1" width="0.4064" layer="16"/>
<wire x1="63.5" y1="60.96" x2="63.5" y2="43.18" width="0.4064" layer="1"/>
<via x="63.5" y="60.96" extent="1-16" drill="0.6" shape="square"/>
<wire x1="78.74" y1="43.18" x2="63.5" y2="43.18" width="0.4064" layer="16"/>
<via x="63.5" y="43.18" extent="1-16" drill="0.6" shape="square"/>
<wire x1="78.74" y1="38.1" x2="78.74" y2="43.18" width="0.4064" layer="1"/>
<via x="78.74" y="43.18" extent="1-16" drill="0.6" shape="square"/>
<via x="78.74" y="38.1" extent="1-16" drill="0.6" shape="square"/>
<wire x1="66.04" y1="60.96" x2="68.58" y2="60.96" width="0" layer="19" extent="1-1"/>
</signal>
<signal name="N$25">
<contactref element="R12" pad="1"/>
<contactref element="Q20" pad="C"/>
<contactref element="Q21" pad="B"/>
<contactref element="Q23" pad="B"/>
<contactref element="Q23" pad="C"/>
<wire x1="81.28" y1="63.5" x2="73.66" y2="63.5" width="0.4064" layer="16"/>
<wire x1="73.66" y1="58.42" x2="71.12" y2="58.42" width="0.4064" layer="16"/>
<wire x1="73.66" y1="63.5" x2="73.66" y2="58.42" width="0.4064" layer="1"/>
<via x="73.66" y="63.5" extent="1-16" drill="0.6" shape="square"/>
<via x="73.66" y="58.42" extent="1-16" drill="0.6" shape="square"/>
<wire x1="88.9" y1="63.5" x2="81.28" y2="63.5" width="0.4064" layer="16"/>
<wire x1="96.52" y1="45.72" x2="93.98" y2="45.72" width="0.4064" layer="16"/>
<wire x1="96.52" y1="48.26" x2="93.98" y2="48.26" width="0.4064" layer="16"/>
<wire x1="93.98" y1="45.72" x2="93.98" y2="48.26" width="0.4064" layer="1"/>
<via x="93.98" y="48.26" extent="1-16" drill="0.6" shape="square"/>
<via x="93.98" y="45.72" extent="1-16" drill="0.6" shape="square"/>
<wire x1="71.12" y1="58.42" x2="66.04" y2="58.42" width="0.4064" layer="16"/>
<wire x1="93.98" y1="45.72" x2="66.04" y2="45.72" width="0.4064" layer="16"/>
<wire x1="66.04" y1="58.42" x2="66.04" y2="45.72" width="0.4064" layer="1"/>
<via x="66.04" y="45.72" extent="1-16" drill="0.6" shape="square"/>
<via x="66.04" y="58.42" extent="1-16" drill="0.6" shape="square"/>
</signal>
<signal name="N$28">
<contactref element="R11" pad="1"/>
<contactref element="Q6" pad="C"/>
<contactref element="Q15" pad="C"/>
<contactref element="Q16" pad="B"/>
<wire x1="12.7" y1="53.34" x2="10.16" y2="53.34" width="0.4064" layer="16"/>
<wire x1="68.58" y1="53.34" x2="71.12" y2="53.34" width="0.4064" layer="16"/>
<wire x1="10.16" y1="53.34" x2="10.16" y2="50.8" width="0.4064" layer="1"/>
<via x="10.16" y="53.34" extent="1-16" drill="0.6" shape="square"/>
<wire x1="10.16" y1="50.8" x2="68.58" y2="50.8" width="0.4064" layer="16"/>
<via x="10.16" y="50.8" extent="1-16" drill="0.6" shape="square"/>
<wire x1="68.58" y1="50.8" x2="71.12" y2="50.8" width="0.4064" layer="16"/>
<wire x1="71.12" y1="53.34" x2="71.12" y2="50.8" width="0.4064" layer="1"/>
<via x="71.12" y="53.34" extent="1-16" drill="0.6" shape="square"/>
<via x="71.12" y="50.8" extent="1-16" drill="0.6" shape="square"/>
<wire x1="76.2" y1="33.02" x2="68.58" y2="33.02" width="0.4064" layer="16"/>
<wire x1="68.58" y1="33.02" x2="68.58" y2="50.8" width="0.4064" layer="1"/>
<via x="68.58" y="33.02" extent="1-16" drill="0.6" shape="square"/>
<via x="68.58" y="50.8" extent="1-16" drill="0.6" shape="square"/>
<wire x1="68.58" y1="33.02" x2="71.12" y2="33.02" width="0" layer="19" extent="16-16"/>
</signal>
<signal name="N$29">
<contactref element="R10" pad="1"/>
<contactref element="Q18" pad="B"/>
<contactref element="Q18" pad="C"/>
<contactref element="Q25" pad="E"/>
<wire x1="53.34" y1="48.26" x2="60.96" y2="48.26" width="0.4064" layer="16"/>
<wire x1="73.66" y1="40.64" x2="71.12" y2="40.64" width="0.4064" layer="16"/>
<wire x1="71.12" y1="40.64" x2="60.96" y2="40.64" width="0.4064" layer="16"/>
<wire x1="60.96" y1="48.26" x2="60.96" y2="40.64" width="0.4064" layer="1"/>
<via x="60.96" y="48.26" extent="1-16" drill="0.6" shape="square"/>
<via x="60.96" y="40.64" extent="1-16" drill="0.6" shape="square"/>
<wire x1="73.66" y1="38.1" x2="71.12" y2="38.1" width="0.4064" layer="16"/>
<wire x1="71.12" y1="40.64" x2="71.12" y2="38.1" width="0.4064" layer="1"/>
<via x="71.12" y="40.64" extent="1-16" drill="0.6" shape="square"/>
<via x="71.12" y="38.1" extent="1-16" drill="0.6" shape="square"/>
<wire x1="73.66" y1="40.64" x2="93.98" y2="40.64" width="0.4064" layer="16"/>
<wire x1="96.52" y1="22.86" x2="93.98" y2="22.86" width="0.4064" layer="16"/>
<wire x1="93.98" y1="40.64" x2="93.98" y2="22.86" width="0.4064" layer="1"/>
<via x="93.98" y="40.64" extent="1-16" drill="0.6" shape="square"/>
<via x="93.98" y="22.86" extent="1-16" drill="0.6" shape="square"/>
</signal>
<signal name="N$3">
<contactref element="R6" pad="1"/>
<contactref element="Q11" pad="C"/>
<contactref element="Q15" pad="B"/>
<wire x1="43.18" y1="22.86" x2="50.8" y2="22.86" width="0.4064" layer="16"/>
<wire x1="71.12" y1="30.48" x2="50.8" y2="30.48" width="0.4064" layer="16"/>
<wire x1="50.8" y1="30.48" x2="48.26" y2="30.48" width="0.4064" layer="16"/>
<wire x1="48.26" y1="35.56" x2="48.26" y2="30.48" width="0.4064" layer="1"/>
<via x="48.26" y="35.56" extent="1-16" drill="0.6" shape="square"/>
<via x="48.26" y="30.48" extent="1-16" drill="0.6" shape="square"/>
<wire x1="48.26" y1="35.56" x2="45.72" y2="35.56" width="0.4064" layer="16"/>
<wire x1="50.8" y1="30.48" x2="50.8" y2="22.86" width="0.4064" layer="1"/>
<via x="50.8" y="30.48" extent="1-16" drill="0.6" shape="square"/>
<via x="50.8" y="22.86" extent="1-16" drill="0.6" shape="square"/>
</signal>
<signal name="N$12">
<contactref element="Q16" pad="C"/>
<contactref element="Q17" pad="B"/>
<contactref element="Q18" pad="E"/>
<wire x1="76.2" y1="35.56" x2="73.66" y2="35.56" width="0.4064" layer="16"/>
<wire x1="81.28" y1="35.56" x2="76.2" y2="35.56" width="0.4064" layer="16"/>
</signal>
<signal name="N$17">
<contactref element="R15" pad="1"/>
<contactref element="R16" pad="1"/>
<contactref element="R14" pad="2"/>
<contactref element="Q20" pad="E"/>
<wire x1="83.82" y1="58.42" x2="81.28" y2="58.42" width="0.4064" layer="16"/>
<wire x1="83.82" y1="58.42" x2="88.9" y2="58.42" width="0.4064" layer="16"/>
<wire x1="76.2" y1="25.4" x2="88.9" y2="25.4" width="0.4064" layer="16"/>
<wire x1="76.2" y1="25.4" x2="73.66" y2="25.4" width="0.4064" layer="16"/>
<wire x1="58.42" y1="22.86" x2="73.66" y2="22.86" width="0.4064" layer="16"/>
<wire x1="73.66" y1="25.4" x2="73.66" y2="22.86" width="0.4064" layer="1"/>
<via x="73.66" y="22.86" extent="1-16" drill="0.6" shape="square"/>
<via x="73.66" y="25.4" extent="1-16" drill="0.6" shape="square"/>
<wire x1="88.9" y1="58.42" x2="88.9" y2="25.4" width="0.4064" layer="1"/>
<via x="88.9" y="25.4" extent="1-16" drill="0.6" shape="square"/>
<via x="88.9" y="58.42" extent="1-16" drill="0.6" shape="square"/>
</signal>
<signal name="N$21">
<contactref element="R13" pad="2"/>
<contactref element="Q21" pad="E"/>
<contactref element="Q22" pad="B"/>
<wire x1="86.36" y1="60.96" x2="93.98" y2="60.96" width="0.4064" layer="16"/>
<wire x1="101.6" y1="63.5" x2="93.98" y2="63.5" width="0.4064" layer="16"/>
<wire x1="93.98" y1="63.5" x2="93.98" y2="60.96" width="0.4064" layer="1"/>
<via x="93.98" y="63.5" extent="1-16" drill="0.6" shape="square"/>
<via x="93.98" y="60.96" extent="1-16" drill="0.6" shape="square"/>
<wire x1="93.98" y1="60.96" x2="88.9" y2="60.96" width="0" layer="19" extent="1-1"/>
</signal>
<signal name="N$22">
<contactref element="R13" pad="1"/>
<contactref element="JP3" pad="1"/>
<contactref element="Q22" pad="E"/>
<contactref element="Q23" pad="E"/>
<contactref element="Q24" pad="C"/>
<wire x1="86.36" y1="53.34" x2="91.44" y2="53.34" width="0.4064" layer="16"/>
<wire x1="91.44" y1="53.34" x2="93.98" y2="53.34" width="0.4064" layer="16"/>
<wire x1="93.98" y1="53.34" x2="99.06" y2="53.34" width="0.4064" layer="16"/>
<wire x1="101.6" y1="60.96" x2="99.06" y2="60.96" width="0.4064" layer="16"/>
<wire x1="99.06" y1="60.96" x2="99.06" y2="53.34" width="0.4064" layer="1"/>
<via x="99.06" y="60.96" extent="1-16" drill="0.6" shape="square"/>
<via x="99.06" y="53.34" extent="1-16" drill="0.6" shape="square"/>
<wire x1="48.26" y1="12.7" x2="50.8" y2="12.7" width="0.4064" layer="16"/>
<wire x1="50.8" y1="12.7" x2="50.8" y2="10.16" width="0.4064" layer="1"/>
<via x="50.8" y="12.7" extent="1-16" drill="0.6" shape="square"/>
<wire x1="50.8" y1="10.16" x2="91.44" y2="10.16" width="0.4064" layer="16"/>
<via x="50.8" y="10.16" extent="1-16" drill="0.6" shape="square"/>
<wire x1="91.44" y1="53.34" x2="91.44" y2="10.16" width="0.4064" layer="1"/>
<via x="91.44" y="10.16" extent="1-16" drill="0.6" shape="square"/>
<via x="91.44" y="53.34" extent="1-16" drill="0.6" shape="square"/>
<wire x1="78.74" y1="53.34" x2="86.36" y2="53.34" width="0.4064" layer="16"/>
<wire x1="96.52" y1="50.8" x2="93.98" y2="50.8" width="0.4064" layer="16"/>
<wire x1="93.98" y1="53.34" x2="93.98" y2="50.8" width="0.4064" layer="1"/>
<via x="93.98" y="50.8" extent="1-16" drill="0.6" shape="square"/>
<via x="93.98" y="53.34" extent="1-16" drill="0.6" shape="square"/>
</signal>
<signal name="N$27">
<contactref element="R14" pad="1"/>
<contactref element="Q24" pad="B"/>
<wire x1="83.82" y1="50.8" x2="78.74" y2="50.8" width="0.4064" layer="16"/>
</signal>
<signal name="N$31">
<contactref element="R16" pad="2"/>
<contactref element="Q14" pad="B"/>
<contactref element="Q25" pad="C"/>
<wire x1="81.28" y1="17.78" x2="76.2" y2="17.78" width="0.4064" layer="16"/>
<wire x1="96.52" y1="17.78" x2="81.28" y2="17.78" width="0.4064" layer="16"/>
</signal>
<signal name="N$32">
<contactref element="R17" pad="2"/>
<contactref element="JP4" pad="1"/>
<wire x1="81.28" y1="12.7" x2="93.98" y2="12.7" width="0.4064" layer="16"/>
</signal>
<signal name="N$33">
<contactref element="JP7" pad="1"/>
<contactref element="Q14" pad="C"/>
<wire x1="25.4" y1="68.58" x2="27.94" y2="68.58" width="0.4064" layer="16"/>
<wire x1="81.28" y1="20.32" x2="27.94" y2="20.32" width="0.4064" layer="16"/>
<wire x1="27.94" y1="68.58" x2="27.94" y2="20.32" width="0.4064" layer="1"/>
<via x="27.94" y="68.58" extent="1-16" drill="0.6" shape="square"/>
<via x="27.94" y="20.32" extent="1-16" drill="0.6" shape="square"/>
</signal>
<signal name="N$34">
<contactref element="R17" pad="1"/>
<contactref element="Q25" pad="B"/>
<wire x1="96.52" y1="20.32" x2="93.98" y2="20.32" width="0.4064" layer="16"/>
</signal>
</signals>
</board>
</drawing>
</eagle>
